Condition,Context,Action,Answer1,Answer2,Answer3,Correct,WrongSameContext,VideoFile,NoVideoFile,ImageFile,NoImageFile,Question,TrialNum,Video,Video_Marker,Video_Size,Video_Mirror
7,1,chopping,raspen,verven,snijden,3,1,chopping,51,Kitchen5.png,22,Wat was het?,771,M1_S3_I1,1,2,3
7,2,painting,snijden,raspen,verven,3,1,painting,61,Scrambled2.png,23,Wat was het?,772,M3_S2_I0,1,2,3
7,1,chopping,snijden,raspen,verven,1,1,chopping,52,Scrambled8.png,34,Wat was het?,773,M2_S1_I0,1,2,3
7,2,painting,verven,snijden,raspen,1,1,painting,62,Garage5.png,32,Wat was het?,774,M4_S3_I1,1,2,3
7,1,chopping,verven,snijden,hameren,2,1,chopping,53,Kitchen5.png,31,Wat was het?,775,M1_S3_I0,1,2,3
7,1,chopping,raspen,snijden,verven,2,1,chopping,54,Scrambled6.png,21,Wat was het?,776,M1_S2_I0,1,2,3
7,2,painting,snijden,verven,raspen,2,1,painting,63,Garage5.png,24,Wat was het?,777,M5_S3_I1,1,2,3
7,2,painting,snijden,snijden,verven,3,1,painting,64,Scrambled1.png,33,Wat was het?,778,M4_S1_I1,1,2,3
7,1,chopping,raspen,verven,snijden,3,1,chopping,55,Scrambled5.png,22,Wat was het?,779,M3_S1_I1,1,2,3
7,2,painting,snijden,raspen,verven,3,1,painting,65,Scrambled8.png,23,Wat was het?,780,M2_S3_I1,1,2,3
7,1,chopping,snijden,raspen,hameren,1,1,chopping,56,Garage5.png,34,Wat was het?,781,M4_S2_I0,1,2,3
7,2,painting,snijden,verven,raspen,2,1,painting,66,Kitchen5.png,32,Wat was het?,782,M3_S3_I1,1,2,3
