Image;RatingShampooing;RatingChopping;RatingErasing;RatingScrewing;RatingGrating;RatingHammering;RatingWritingWall;RatingBrushingTeeth;RatingSharpeningPencil;RatingOpeningBottle;RatingPainting;RatingWashingFace;RatingCombing;RatingStapling;RatingOpeningBeer;RatingSawing
Bathroom1.png;6;6;1;3;1;3;1;6;1;2;3;6;6;3;2;1
Kitchen4.png;1;5;1;4;6;4;4;4;2;6;6;4;4;5;6;3
Office3.png;1;1;3;1;1;1;5;1;6;1;1;1;1;6;1;1
Garage3.png;1;6;4;6;3;6;4;1;4;1;6;1;1;6;1;6
