Condition;Action;Task;VideoFile;NumberVideoFile;ImageFile;NumberImageFile;TrialNum;VideoConfiguration;VideoMarker;VideoSize;VideoMirror;Response;ReactionTime;
2;2;openingbeer;openingbeer;22;Garage0.png;66;2;M2_S3_I0;2;3;0;0;5220
3;2;openingbeer;openingbeer;22;Scrambled0.png;62;6;M1_S3_I0;1;3;0;0;3884
1;1;combing;combing;21;Bathroom0.png;63;1;M1_S3_I0;1;3;0;0;1535
3;3;stapling;stapling;23;Scrambled01.png;61;3;M1_S3_I0;1;3;0;0;2750
2;1;combing;combing;21;Kitchen0.png;64;5;M2_S3_I0;2;3;0;0;2125
1;4;sawing;sawing;24;Garage0.png;66;4;M2_S3_I0;2;3;0;0;1767
3;4;sawing;stapling;23;Scrambled0.png;62;12;M2_S3_I0;2;3;0;2;4077
3;2;openingbeer;openingbeer;22;Scrambled01.png;61;9;M2_S3_I0;2;3;0;0;4050
2;3;stapling;sawing;24;Bathroom0.png;63;11;M1_S3_I0;1;3;0;2;1726
1;1;combing;combing;21;Kitchen0.png;64;10;M1_S3_I0;1;3;0;0;2310
2;3;stapling;stapling;23;Bathroom0.png;63;8;M2_S3_I0;2;3;0;0;2549
1;4;sawing;sawing;24;Garage0.png;66;7;M2_S3_I0;2;3;0;0;1886
3;2;grating;grating;4;Scrambled6.png;55;35;M2_S2_I0;2;2;0;0;3985
2;3;writingwall;writingwall;12;Kitchen1.png;21;39;M2_S1_I1;2;1;1;1;3532
3;2;chopping;chopping;2;Scrambled1.png;50;31;M5_S3_I1;5;3;1;0;4486
2;4;screwing;screwing;8;Office4.png;34;74;M2_S3_I1;2;3;1;2;5000
3;4;painting;painting;7;Scrambled6.png;55;76;M3_S3_I1;3;3;1;0;3848
3;1;shampooing;shampooing;9;Scrambled4.png;53;13;M4_S3_I0;4;3;0;2;1581
3;3;writingwall;writingwall;12;Scrambled4.png;53;53;M5_S1_I0;5;1;0;0;4246
3;1;shampooing;shampooing;9;Scrambled1.png;50;81;M3_S3_I1;3;3;1;2;2792
1;4;hammering;hammering;5;Garage3.png;43;78;M5_S2_I1;5;2;1;0;3761
2;4;painting;painting;7;Kitchen5.png;25;47;M3_S1_I1;3;1;1;1;3444
3;1;washingface;washingface;11;Scrambled10.png;59;24;M3_S2_I0;3;2;0;2;1657
1;1;brushingteeth;brushingteeth;1;Bathroom1.png;11;60;M4_S3_I1;4;3;1;2;1478
1;2;openingbottle;openingbottle;6;Kitchen1.png;21;79;M2_S2_I1;2;2;1;1;2120
3;1;shampooing;shampooing;9;Scrambled3.png;52;70;M5_S3_I0;5;3;0;2;1682
3;4;painting;painting;7;Scrambled3.png;52;25;M2_S3_I0;2;3;0;2;1502
1;1;washingface;washingface;11;Bathroom3.png;13;75;M4_S1_I1;4;1;1;2;2735
2;2;openingbottle;openingbottle;6;Office5.png;35;51;M2_S1_I0;2;1;0;2;1472
1;2;chopping;chopping;2;Kitchen3.png;23;18;M5_S2_I1;5;2;1;0;5721
1;2;grating;grating;4;Kitchen3.png;23;55;M5_S3_I0;5;3;0;0;5353
2;1;brushingteeth;brushingteeth;1;Kitchen2.png;22;38;M3_S1_I1;3;1;1;2;1744
1;1;shampooing;shampooing;9;Bathroom4.png;14;56;M3_S2_I1;3;2;1;1;2535
3;2;openingbottle;openingbottle;6;Scrambled7.png;56;52;M2_S2_I0;2;2;0;2;1552
1;4;painting;painting;7;Garage5.png;45;21;M3_S2_I0;3;2;0;2;2255
1;1;shampooing;shampooing;9;Bathroom2.png;12;61;M2_S2_I0;2;2;0;2;3023
3;3;writingwall;writingwall;12;Scrambled3.png;52;72;M2_S3_I0;2;3;0;2;3073
3;1;washingface;washingface;11;Scrambled3.png;52;54;M5_S1_I1;5;1;1;0;4572
3;4;screwing;screwing;8;Scrambled2.png;51;45;M2_S2_I0;2;2;0;2;3216
1;3;sharpeningpencil;sharpeningpencil;10;Office5.png;35;17;M3_S2_I0;3;2;0;2;1773
2;3;erasing;erasing;3;Garage5.png;45;34;M4_S3_I0;4;3;0;1;3424
1;2;openingbottle;openingbottle;6;Kitchen2.png;22;68;M3_S2_I0;3;2;0;2;1605
2;4;screwing;screwing;8;Bathroom5.png;15;84;M2_S3_I0;2;3;0;2;3678
1;4;hammering;hammering;5;Garage4.png;44;19;M4_S1_I0;4;1;0;2;3971
2;4;painting;painting;7;Office1.png;31;36;M5_S1_I0;5;1;0;1;3502
3;4;hammering;hammering;5;Scrambled9.png;58;23;M3_S3_I1;3;3;1;2;4983
1;1;washingface;washingface;11;Bathroom3.png;13;66;M4_S1_I0;4;1;0;2;3418
2;2;grating;grating;4;Office2.png;32;22;M3_S1_I1;3;1;1;2;2397
2;1;shampooing;shampooing;9;Garage5.png;45;49;M5_S1_I1;5;1;1;0;4692
2;1;washingface;washingface;11;Office5.png;35;48;M3_S1_I1;3;1;1;2;1845
3;2;grating;grating;4;Scrambled5.png;54;40;M2_S1_I1;2;1;1;2;3812
3;4;hammering;hammering;5;Scrambled4.png;53;63;M2_S3_I1;2;3;1;2;5280
1;2;chopping;chopping;2;Kitchen3.png;23;20;M4_S3_I1;4;3;1;1;4675
2;4;screwing;screwing;8;Kitchen2.png;22;30;M4_S1_I0;4;1;0;0;5995
1;4;painting;painting;7;Garage5.png;45;32;M3_S3_I0;3;3;0;2;1259
3;2;chopping;chopping;2;Scrambled1.png;50;65;M2_S2_I1;2;2;1;2;2883
3;1;washingface;washingface;11;Scrambled6.png;55;58;M4_S2_I0;4;2;0;2;1262
1;4;painting;painting;7;Garage3.png;43;26;M4_S3_I0;4;3;0;2;3557
1;3;writingwall;writingwall;12;Office2.png;32;67;M4_S3_I1;4;3;1;2;1462
1;1;washingface;washingface;11;Bathroom2.png;12;43;M2_S3_I1;2;3;1;2;1674
2;2;openingbottle;openingbottle;6;Office5.png;35;15;M4_S3_I1;4;3;1;1;3696
3;1;brushingteeth;brushingteeth;1;Scrambled7.png;56;73;M3_S1_I0;3;1;0;2;2615
2;3;sharpeningpencil;sharpeningpencil;10;Bathroom3.png;13;80;M5_S1_I0;5;1;0;0;1788
2;4;hammering;hammering;5;Office5.png;35;28;M5_S3_I0;5;3;0;2;3119
1;4;screwing;screwing;8;Garage2.png;42;77;M2_S2_I1;2;2;1;1;4457
3;3;sharpeningpencil;sharpeningpencil;10;Scrambled5.png;54;27;M4_S1_I0;4;1;0;2;1892
2;3;sharpeningpencil;sharpeningpencil;10;Kitchen1.png;21;41;M4_S2_I1;4;2;1;2;1591
2;2;chopping;chopping;2;Bathroom2.png;12;59;M3_S1_I1;3;1;1;0;1686
2;1;shampooing;shampooing;9;Kitchen5.png;25;14;M4_S1_I1;4;1;1;1;1760
1;2;openingbottle;openingbottle;6;Kitchen4.png;24;71;M2_S1_I1;2;1;1;0;1641
1;2;chopping;chopping;2;Kitchen2.png;22;44;M5_S3_I0;5;3;0;2;1606
2;1;washingface;washingface;11;Garage2.png;42;50;M2_S3_I0;2;3;0;1;1891
3;2;chopping;chopping;2;Scrambled5.png;54;57;M2_S1_I1;2;1;1;0;2468
3;3;erasing;erasing;3;Scrambled9.png;58;64;M5_S3_I1;5;3;1;1;1471
2;1;brushingteeth;brushingteeth;1;Kitchen5.png;25;37;M4_S2_I0;4;2;0;2;1587
2;2;grating;grating;4;Bathroom1.png;11;62;M4_S2_I1;4;2;1;2;1617
1;1;shampooing;shampooing;9;Bathroom5.png;15;33;M4_S2_I0;4;2;0;2;1710
2;4;screwing;screwing;8;Office3.png;33;46;M2_S1_I1;2;1;1;2;2024
2;3;writingwall;writingwall;12;Kitchen4.png;24;29;M2_S1_I0;2;1;0;2;1302
2;2;grating;grating;4;Garage2.png;42;83;M4_S2_I0;4;2;0;0;1983
2;2;openingbottle;openingbottle;6;Bathroom4.png;14;69;M4_S2_I1;4;2;1;1;4885
2;4;painting;painting;7;Bathroom1.png;11;82;M4_S2_I0;4;2;0;2;2317
2;2;openingbottle;openingbottle;6;Garage3.png;43;42;M5_S2_I0;5;2;0;2;1200
1;1;shampooing;shampooing;9;Bathroom1.png;11;16;M5_S1_I0;5;1;0;1;2412
1;2;openingbottle;openingbottle;6;Kitchen5.png;25;94;M5_S3_I0;5;3;0;2;1195
1;3;sharpeningpencil;sharpeningpencil;10;Office5.png;35;139;M4_S3_I1;4;3;1;1;1208
2;2;chopping;chopping;2;Garage5.png;45;128;M4_S1_I1;4;1;1;1;1750
2;2;grating;grating;4;Office3.png;33;120;M3_S1_I0;3;1;0;2;4008
3;4;screwing;screwing;8;Scrambled9.png;58;156;M3_S3_I1;3;3;1;2;3616
3;2;openingbottle;openingbottle;6;Scrambled5.png;54;122;M4_S2_I0;4;2;0;2;1406
2;3;sharpeningpencil;sharpeningpencil;10;Bathroom4.png;14;134;M2_S1_I1;2;1;1;0;2275
3;3;erasing;erasing;3;Scrambled5.png;54;119;M4_S2_I0;4;2;0;1;6154
2;4;screwing;screwing;8;Bathroom2.png;12;108;M3_S1_I1;3;1;1;2;2958
1;3;sharpeningpencil;sharpeningpencil;10;Office1.png;31;143;M4_S3_I0;4;3;0;2;1782
2;1;shampooing;shampooing;9;Garage3.png;43;109;M2_S3_I1;2;3;1;2;1469
3;3;sharpeningpencil;sharpeningpencil;10;Scrambled1.png;50;103;M3_S1_I0;3;1;0;2;1266
3;2;openingbottle;openingbottle;6;Scrambled5.png;54;113;M2_S3_I0;2;3;0;2;1327
3;4;painting;painting;7;Scrambled1.png;50;95;M5_S2_I0;5;2;0;2;1848
2;3;erasing;erasing;3;Kitchen5.png;25;116;M5_S1_I0;5;1;0;1;3783
3;3;erasing;erasing;3;Scrambled6.png;55;92;M3_S1_I1;3;1;1;1;3273
3;3;writingwall;writingwall;12;Scrambled6.png;55;97;M4_S2_I1;4;2;1;2;1174
2;4;painting;painting;7;Kitchen4.png;24;148;M5_S1_I1;5;1;1;2;2020
3;3;sharpeningpencil;sharpeningpencil;10;Scrambled4.png;53;98;M2_S2_I1;2;2;1;0;2511
2;1;brushingteeth;brushingteeth;1;Kitchen4.png;24;117;M3_S3_I1;3;3;1;1;1673
3;1;shampooing;shampooing;9;Scrambled1.png;50;111;M2_S1_I1;2;1;1;1;2147
3;4;screwing;screwing;8;Scrambled3.png;52;118;M4_S2_I1;4;2;1;2;3223
1;1;brushingteeth;brushingteeth;1;Bathroom5.png;15;132;M4_S3_I0;4;3;0;2;1270
1;2;grating;grating;4;Kitchen4.png;24;125;M3_S2_I1;3;2;1;2;2957
3;4;painting;painting;7;Scrambled1.png;50;131;M2_S3_I1;2;3;1;2;1222
1;1;washingface;washingface;11;Bathroom3.png;13;149;M2_S2_I1;2;2;1;2;1380
3;1;brushingteeth;brushingteeth;1;Scrambled10.png;59;90;M2_S1_I1;2;1;1;0;3862
3;3;writingwall;writingwall;12;Scrambled8.png;57;129;M2_S2_I1;2;2;1;2;1067
1;1;brushingteeth;brushingteeth;1;Bathroom5.png;15;155;M2_S2_I0;2;2;0;2;1057
3;4;painting;painting;7;Scrambled10.png;59;93;M2_S1_I1;2;1;1;2;1924
3;1;brushingteeth;brushingteeth;1;Scrambled5.png;54;87;M2_S1_I0;2;1;0;2;1493
2;3;sharpeningpencil;sharpeningpencil;10;Kitchen5.png;25;130;M4_S2_I0;4;2;0;2;4002
1;1;brushingteeth;brushingteeth;1;Bathroom2.png;12;153;M2_S2_I1;2;2;1;2;2286
2;4;screwing;screwing;8;Kitchen2.png;22;123;M3_S2_I0;3;2;0;2;2702
3;4;hammering;hammering;5;Scrambled2.png;51;141;M5_S2_I0;5;2;0;2;1584
1;4;screwing;screwing;8;Garage2.png;42;147;M4_S1_I1;4;1;1;2;1950
1;3;erasing;erasing;3;Office2.png;32;88;M3_S2_I0;3;2;0;0;3688
1;4;painting;painting;7;Garage3.png;43;144;M3_S1_I0;3;1;0;2;2736
3;3;sharpeningpencil;sharpeningpencil;10;Scrambled10.png;59;115;M5_S1_I1;5;1;1;2;1712
1;1;shampooing;shampooing;9;Bathroom4.png;14;151;M4_S1_I0;4;1;0;1;3382
3;4;hammering;hammering;5;Scrambled7.png;56;121;M2_S3_I0;2;3;0;0;4645
1;2;chopping;chopping;2;Kitchen2.png;22;110;M3_S3_I1;3;3;1;2;2376
2;3;erasing;erasing;3;Kitchen2.png;22;89;M2_S2_I0;2;2;0;1;5037
2;3;sharpeningpencil;sharpeningpencil;10;Kitchen2.png;22;106;M5_S2_I1;5;2;1;0;3900
3;2;openingbottle;openingbottle;6;Scrambled9.png;58;96;M5_S3_I1;5;3;1;1;2858
3;3;writingwall;writingwall;12;Scrambled4.png;53;150;M3_S2_I0;3;2;0;2;1367
2;4;screwing;screwing;8;Kitchen4.png;24;102;M5_S1_I1;5;1;1;2;2699
1;1;washingface;washingface;11;Bathroom3.png;13;114;M4_S2_I1;4;2;1;2;3018
3;3;erasing;erasing;3;Scrambled3.png;52;100;M3_S1_I0;3;1;0;0;1265
2;3;writingwall;writingwall;12;Garage3.png;43;91;M3_S1_I0;3;1;0;2;1245
3;1;brushingteeth;brushingteeth;1;Scrambled5.png;54;124;M2_S3_I0;2;3;0;1;3142
1;4;painting;painting;7;Garage1.png;41;152;M5_S2_I1;5;2;1;2;1335
1;3;writingwall;writingwall;12;Office5.png;35;105;M2_S3_I1;2;3;1;2;1313
1;3;sharpeningpencil;sharpeningpencil;10;Office1.png;31;137;M3_S3_I1;3;3;1;0;1180
2;2;openingbottle;openingbottle;6;Garage3.png;43;99;M4_S1_I1;4;1;1;2;1261
2;2;chopping;chopping;2;Bathroom2.png;12;112;M4_S1_I0;4;1;0;0;2726
2;3;erasing;erasing;3;Kitchen4.png;24;127;M3_S3_I0;3;3;0;2;1814
2;4;screwing;screwing;8;Office4.png;34;140;M4_S3_I0;4;3;0;2;3335
2;1;brushingteeth;brushingteeth;1;Garage2.png;42;142;M4_S1_I0;4;1;0;2;2079
3;3;erasing;erasing;3;Scrambled7.png;56;133;M2_S2_I1;2;2;1;1;5536
1;2;grating;grating;4;Kitchen2.png;22;104;M4_S1_I1;4;1;1;2;2814
1;3;erasing;erasing;3;Office5.png;35;107;M2_S3_I0;2;3;0;2;2473
2;4;hammering;hammering;5;Office2.png;32;135;M4_S2_I0;4;2;0;1;4253
3;2;grating;grating;4;Scrambled5.png;54;85;M4_S1_I0;4;1;0;2;2191
3;1;brushingteeth;brushingteeth;1;Scrambled1.png;50;146;M5_S3_I1;5;3;1;1;2452
2;4;hammering;hammering;5;Kitchen4.png;24;86;M2_S2_I1;2;2;1;0;2461
3;4;screwing;screwing;8;Scrambled8.png;57;101;M4_S3_I1;4;3;1;2;1354
1;1;washingface;washingface;11;Bathroom2.png;12;154;M2_S1_I0;2;1;0;2;2799
1;2;grating;grating;4;Kitchen1.png;21;145;M5_S1_I0;5;1;0;2;4565
3;4;hammering;hammering;5;Scrambled8.png;57;138;M4_S1_I1;4;1;1;2;5091
2;1;brushingteeth;brushingteeth;1;Garage2.png;42;136;M5_S2_I0;5;2;0;1;2148
2;1;shampooing;shampooing;9;Kitchen2.png;22;126;M4_S2_I1;4;2;1;2;2187
2;1;washingface;washingface;11;Garage3.png;43;194;M5_S3_I1;5;3;1;0;2448
1;4;hammering;hammering;5;Garage2.png;42;180;M2_S2_I0;2;2;0;1;1712
1;3;erasing;erasing;3;Office3.png;33;167;M5_S1_I1;5;1;1;2;2711
2;2;grating;grating;4;Office3.png;33;197;M5_S2_I0;5;2;0;2;4465
2;1;washingface;washingface;11;Kitchen3.png;23;198;M4_S3_I0;4;3;0;2;2570
1;2;grating;grating;4;Kitchen3.png;23;209;M2_S1_I0;2;1;0;2;3245
2;3;sharpeningpencil;sharpeningpencil;10;Kitchen5.png;25;169;M5_S3_I0;5;3;0;2;3508
3;4;screwing;screwing;8;Scrambled5.png;54;210;M5_S2_I1;5;2;1;2;4063
2;4;hammering;hammering;5;Kitchen2.png;22;226;M3_S1_I0;3;1;0;1;2569
3;1;shampooing;shampooing;9;Scrambled3.png;52;211;M2_S2_I1;2;2;1;2;3898
1;1;shampooing;shampooing;9;Bathroom1.png;11;199;M5_S3_I1;5;3;1;2;1996
1;4;hammering;hammering;5;Garage3.png;43;202;M3_S2_I1;3;2;1;2;4961
2;2;chopping;chopping;2;Garage2.png;42;162;M4_S2_I1;4;2;1;1;2008
2;2;grating;grating;4;Office1.png;31;182;M4_S3_I1;4;3;1;2;1446
2;3;erasing;erasing;3;Garage3.png;43;190;M3_S2_I1;3;2;1;0;1546
3;2;openingbottle;openingbottle;6;Scrambled4.png;53;222;M5_S1_I0;5;1;0;2;1244
2;4;hammering;hammering;5;Kitchen4.png;24;179;M2_S1_I1;2;1;1;2;4497
1;4;painting;painting;7;Garage3.png;43;166;M4_S1_I0;4;1;0;2;1882
1;1;shampooing;shampooing;9;Bathroom3.png;13;224;M3_S1_I0;3;1;0;1;1852
2;3;erasing;erasing;3;Kitchen1.png;21;206;M4_S1_I0;4;1;0;0;4186
2;3;writingwall;writingwall;12;Garage4.png;44;168;M4_S1_I1;4;1;1;2;1281
1;1;brushingteeth;brushingteeth;1;Bathroom2.png;12;191;M5_S2_I1;5;2;1;1;1900
3;3;sharpeningpencil;sharpeningpencil;10;Scrambled1.png;50;164;M5_S3_I1;5;3;1;0;1806
1;4;screwing;screwing;8;Garage4.png;44;216;M4_S2_I0;4;2;0;0;1508
2;3;writingwall;writingwall;12;Kitchen2.png;22;173;M3_S3_I1;3;3;1;2;1142
1;4;screwing;screwing;8;Garage4.png;44;174;M2_S1_I0;2;1;0;2;2772
1;2;chopping;chopping;2;Kitchen3.png;23;208;M2_S1_I0;2;1;0;0;1412
3;4;painting;painting;7;Scrambled9.png;58;163;M5_S3_I0;5;3;0;2;2472
2;3;writingwall;writingwall;12;Garage3.png;43;203;M5_S3_I0;5;3;0;2;1459
1;3;sharpeningpencil;sharpeningpencil;10;Office1.png;31;193;M5_S2_I0;5;2;0;2;2438
2;1;shampooing;shampooing;9;Office2.png;32;183;M5_S2_I0;5;2;0;2;2209
2;1;shampooing;shampooing;9;Garage3.png;43;207;M2_S3_I0;2;3;0;2;1527
1;3;erasing;erasing;3;Office2.png;32;187;M2_S1_I1;2;1;1;0;3029
1;3;sharpeningpencil;sharpeningpencil;10;Office4.png;34;201;M3_S3_I0;3;3;0;2;2615
1;2;grating;grating;4;Kitchen4.png;24;215;M4_S3_I0;4;3;0;2;3783
1;2;chopping;chopping;2;Kitchen4.png;24;217;M2_S3_I1;2;3;1;2;2699
3;2;openingbottle;openingbottle;6;Scrambled6.png;55;177;M4_S1_I0;4;1;0;2;1933
1;3;writingwall;writingwall;12;Office3.png;33;160;M4_S2_I0;4;2;0;2;1758
1;3;sharpeningpencil;sharpeningpencil;10;Office2.png;32;196;M2_S1_I0;2;1;0;0;3632
1;2;chopping;chopping;2;Kitchen5.png;25;172;M2_S2_I0;2;2;0;2;3703
2;4;painting;painting;7;Office2.png;32;200;M4_S1_I1;4;1;1;2;1920
2;2;openingbottle;openingbottle;6;Bathroom5.png;15;157;M5_S1_I1;5;1;1;2;1633
2;1;brushingteeth;brushingteeth;1;Garage3.png;43;184;M3_S3_I0;3;3;0;2;1455
1;1;brushingteeth;brushingteeth;1;Bathroom1.png;11;228;M4_S1_I1;4;1;1;2;1827
2;2;openingbottle;openingbottle;6;Office5.png;35;188;M2_S3_I1;2;3;1;2;1305
1;3;writingwall;writingwall;12;Office2.png;32;178;M5_S2_I1;5;2;1;2;1316
3;2;chopping;chopping;2;Scrambled8.png;57;214;M4_S2_I0;4;2;0;1;1789
2;4;hammering;hammering;5;Office4.png;34;225;M5_S1_I0;5;1;0;1;1508
1;3;erasing;erasing;3;Office3.png;33;176;M5_S2_I0;5;2;0;0;2867
2;1;washingface;washingface;11;Kitchen1.png;21;170;M5_S2_I0;5;2;0;1;1599
1;1;shampooing;shampooing;9;Bathroom5.png;15;218;M2_S1_I0;2;1;0;0;2906
3;2;grating;grating;4;Scrambled9.png;58;175;M3_S3_I0;3;3;0;2;3583
3;3;writingwall;writingwall;12;Scrambled4.png;53;205;M2_S2_I0;2;2;0;2;1231
2;3;writingwall;writingwall;12;Kitchen4.png;24;158;M5_S1_I1;5;1;1;2;1118
2;2;chopping;chopping;2;Garage2.png;42;171;M3_S2_I0;3;2;0;2;1472
3;1;washingface;washingface;11;Scrambled7.png;56;192;M5_S2_I1;5;2;1;2;1587
2;4;hammering;hammering;5;Office3.png;33;181;M4_S3_I1;4;3;1;2;1682
1;2;chopping;chopping;2;Kitchen2.png;22;165;M3_S3_I0;3;3;0;2;1772
3;2;chopping;chopping;2;Scrambled3.png;52;213;M4_S3_I0;4;3;0;2;1778
1;4;hammering;hammering;5;Garage2.png;42;223;M5_S3_I1;5;3;1;2;1817
2;1;brushingteeth;brushingteeth;1;Garage1.png;41;221;M3_S2_I1;3;2;1;2;1614
3;1;washingface;washingface;11;Scrambled5.png;54;212;M3_S1_I0;3;1;0;2;1341
2;1;shampooing;shampooing;9;Office5.png;35;204;M3_S1_I1;3;1;1;1;1303
1;1;brushingteeth;brushingteeth;1;Bathroom3.png;13;195;M4_S2_I1;4;2;1;2;1298
2;2;chopping;chopping;2;Bathroom4.png;14;186;M5_S2_I0;5;2;0;2;2474
3;2;chopping;chopping;2;Scrambled5.png;54;220;M3_S2_I1;3;2;1;2;1797
1;1;washingface;washingface;11;Bathroom2.png;12;159;M5_S1_I0;5;1;0;2;1453
1;1;washingface;washingface;11;Bathroom5.png;15;185;M3_S3_I0;3;3;0;2;1267
3;1;washingface;washingface;11;Scrambled7.png;56;189;M2_S2_I0;2;2;0;2;1295
3;3;sharpeningpencil;sharpeningpencil;10;Scrambled9.png;58;161;M4_S1_I1;4;1;1;2;2822
1;2;openingbottle;openingbottle;6;Kitchen1.png;21;227;M3_S1_I0;3;1;0;2;1188
3;4;painting;painting;7;Scrambled7.png;56;219;M2_S2_I0;2;2;0;2;1858
3;3;writingwall;writingwall;12;Scrambled10.png;59;267;M3_S3_I0;3;3;0;2;2117
3;1;shampooing;shampooing;9;Scrambled9.png;58;247;M4_S3_I1;4;3;1;2;1145
1;3;writingwall;writingwall;12;Office1.png;31;299;M4_S1_I0;4;1;0;2;1003
1;3;erasing;erasing;3;Office2.png;32;261;M5_S3_I0;5;3;0;2;2320
1;4;screwing;screwing;8;Garage2.png;42;244;M5_S1_I0;5;1;0;2;4585
3;1;shampooing;shampooing;9;Scrambled3.png;52;250;M5_S2_I1;5;2;1;2;1296
3;2;openingbottle;openingbottle;6;Scrambled9.png;58;298;M3_S2_I1;3;2;1;0;2441
3;2;grating;grating;4;Scrambled9.png;58;286;M2_S3_I1;2;3;1;2;2068
1;1;brushingteeth;brushingteeth;1;Bathroom5.png;15;245;M5_S1_I0;5;1;0;2;1520
2;1;washingface;washingface;11;Office3.png;33;282;M4_S3_I1;4;3;1;2;1793
1;2;openingbottle;openingbottle;6;Kitchen3.png;23;290;M4_S3_I0;4;3;0;2;1830
2;3;writingwall;writingwall;12;Kitchen2.png;22;284;M5_S3_I1;5;3;1;2;1069
2;4;painting;painting;7;Kitchen5.png;25;231;M4_S2_I1;4;2;1;2;2399
3;2;grating;grating;4;Scrambled1.png;50;239;M3_S2_I0;3;2;0;1;3065
1;4;hammering;hammering;5;Garage3.png;43;274;M4_S3_I0;4;3;0;0;5299
1;4;hammering;hammering;5;Garage2.png;42;258;M4_S2_I1;4;2;1;0;1899
3;3;sharpeningpencil;sharpeningpencil;10;Scrambled5.png;54;256;M2_S3_I1;2;3;1;2;2077
2;3;sharpeningpencil;sharpeningpencil;10;Bathroom4.png;14;255;M2_S3_I0;2;3;0;0;2965
1;4;hammering;hammering;5;Garage4.png;44;300;M3_S1_I1;3;1;1;0;3257
2;2;chopping;chopping;2;Garage2.png;42;277;M5_S1_I0;5;1;0;2;1956
3;1;shampooing;shampooing;9;Scrambled9.png;58;265;M3_S2_I0;3;2;0;2;1588
2;1;washingface;washingface;11;Garage5.png;45;293;M5_S3_I0;5;3;0;1;2417
2;2;chopping;chopping;2;Garage5.png;45;288;M3_S1_I0;3;1;0;0;2237
3;1;brushingteeth;brushingteeth;1;Scrambled1.png;50;280;M3_S2_I0;3;2;0;1;1442
1;3;erasing;erasing;3;Office4.png;34;289;M4_S1_I1;4;1;1;0;1989
1;2;openingbottle;openingbottle;6;Kitchen3.png;23;246;M3_S3_I1;3;3;1;0;1396
3;4;hammering;hammering;5;Scrambled8.png;57;241;M5_S1_I1;5;1;1;2;1371
3;4;hammering;hammering;5;Scrambled10.png;59;275;M2_S1_I0;2;1;0;2;2321
1;3;writingwall;writingwall;12;Office4.png;34;259;M4_S3_I0;4;3;0;2;1012
2;2;openingbottle;openingbottle;6;Office4.png;34;262;M3_S1_I1;3;1;1;2;1323
3;4;hammering;hammering;5;Scrambled3.png;52;254;M3_S2_I0;3;2;0;1;1955
3;4;screwing;screwing;8;Scrambled3.png;52;297;M3_S2_I1;3;2;1;2;1331
3;3;writingwall;writingwall;12;Scrambled1.png;50;260;M3_S1_I1;3;1;1;2;958
1;2;grating;grating;4;Kitchen4.png;24;266;M2_S2_I1;2;2;1;2;1990
3;1;washingface;washingface;11;Scrambled5.png;54;257;M3_S3_I1;3;3;1;2;1301
1;3;writingwall;writingwall;12;Office2.png;32;292;M3_S2_I1;3;2;1;2;1249
2;3;erasing;erasing;3;Garage5.png;45;294;M3_S3_I1;3;3;1;0;3991
2;4;hammering;hammering;5;Bathroom5.png;15;238;M3_S3_I0;3;3;0;2;1972
1;3;sharpeningpencil;sharpeningpencil;10;Office4.png;34;249;M3_S2_I1;3;2;1;2;2513
3;3;erasing;erasing;3;Scrambled2.png;51;232;M2_S3_I1;2;3;1;0;2696
1;4;painting;painting;7;Garage3.png;43;271;M4_S3_I1;4;3;1;2;1946
3;3;erasing;erasing;3;Scrambled4.png;53;237;M4_S3_I1;4;3;1;0;1387
3;4;screwing;screwing;8;Scrambled10.png;59;243;M5_S3_I1;5;3;1;2;1443
2;3;sharpeningpencil;sharpeningpencil;10;Garage5.png;45;229;M2_S2_I0;2;2;0;0;1289
2;4;painting;painting;7;Kitchen4.png;24;230;M3_S2_I1;3;2;1;2;1907
3;3;erasing;erasing;3;Scrambled7.png;56;295;M2_S1_I0;2;1;0;0;1493
3;1;brushingteeth;brushingteeth;1;Scrambled4.png;53;263;M5_S3_I0;5;3;0;1;2118
3;4;painting;painting;7;Scrambled3.png;52;285;M2_S1_I0;2;1;0;2;1552
1;4;screwing;screwing;8;Garage4.png;44;253;M5_S2_I0;5;2;0;2;2079
1;2;grating;grating;4;Kitchen2.png;22;234;M5_S2_I1;5;2;1;2;1642
1;2;openingbottle;openingbottle;6;Kitchen2.png;22;235;M3_S3_I0;3;3;0;2;1240
3;2;grating;grating;4;Scrambled4.png;53;268;M5_S1_I1;5;1;1;0;2147
3;2;chopping;chopping;2;Scrambled4.png;53;269;M5_S1_I1;5;1;1;0;1500
3;1;brushingteeth;brushingteeth;1;Scrambled7.png;56;281;M2_S3_I1;2;3;1;1;1567
2;1;washingface;washingface;11;Kitchen5.png;25;264;M2_S1_I1;2;1;1;1;1104
2;4;painting;painting;7;Bathroom1.png;11;278;M2_S2_I1;2;2;1;2;1809
1;3;erasing;erasing;3;Office3.png;33;270;M4_S2_I1;4;2;1;0;1783
3;4;screwing;screwing;8;Scrambled4.png;53;283;M3_S3_I0;3;3;0;2;1486
2;1;shampooing;shampooing;9;Office1.png;31;236;M3_S3_I0;3;3;0;2;1313
3;2;chopping;chopping;2;Scrambled5.png;54;272;M2_S3_I0;2;3;0;0;1770
3;1;washingface;washingface;11;Scrambled1.png;50;233;M3_S2_I1;3;2;1;2;1219
3;3;sharpeningpencil;sharpeningpencil;10;Scrambled8.png;57;279;M3_S1_I1;3;1;1;2;2062
2;1;brushingteeth;brushingteeth;1;Garage1.png;41;252;M5_S1_I1;5;1;1;2;1180
3;2;grating;grating;4;Scrambled7.png;56;240;M5_S3_I1;5;3;1;1;2026
1;4;screwing;screwing;8;Garage4.png;44;251;M3_S1_I0;3;1;0;2;1815
1;3;writingwall;writingwall;12;Office1.png;31;273;M5_S2_I0;5;2;0;2;1230
1;4;painting;painting;7;Garage3.png;43;242;M5_S3_I1;5;3;1;2;1547
2;2;grating;grating;4;Office5.png;35;248;M3_S3_I1;3;3;1;2;3079
2;3;erasing;erasing;3;Garage5.png;45;276;M5_S2_I1;5;2;1;0;1483
2;2;grating;grating;4;Bathroom5.png;15;287;M2_S3_I0;2;3;0;2;2156
1;4;screwing;screwing;8;Garage1.png;41;291;M5_S3_I0;5;3;0;2;1061
3;2;openingbottle;openingbottle;6;Scrambled9.png;58;296;M5_S2_I1;5;2;1;2;1626
