Condition;Action;Task;VideoFile;NumberVideoFile;ImageFile;NumberImageFile;TrialNum;VideoConfiguration;VideoMarker;VideoSize;VideoMirror;Response;ReactionTime;
3;2;openingbeer;openingbeer;22;Scrambled0.png;62;6;M1_S3_I0;1;3;0;0;3636
2;1;combing;combing;21;Kitchen0.png;64;5;M2_S3_I0;2;3;0;2;2481
1;1;combing;combing;21;Bathroom0.png;63;1;M1_S3_I0;1;3;0;2;1900
1;4;sawing;sawing;24;Garage0.png;66;4;M2_S3_I0;2;3;0;0;4428
2;2;openingbeer;openingbeer;22;Garage0.png;66;2;M2_S3_I0;2;3;0;2;2197
3;3;stapling;stapling;23;Scrambled01.png;61;3;M1_S3_I0;1;3;0;0;2020
2;3;stapling;sawing;24;Bathroom0.png;63;11;M1_S3_I0;1;3;0;0;4694
1;1;combing;combing;21;Kitchen0.png;64;10;M1_S3_I0;1;3;0;2;1858
1;4;sawing;sawing;24;Garage0.png;66;7;M2_S3_I0;2;3;0;0;5853
2;3;stapling;stapling;23;Bathroom0.png;63;8;M2_S3_I0;2;3;0;2;2105
3;2;openingbeer;openingbeer;22;Scrambled01.png;61;9;M2_S3_I0;2;3;0;2;2269
3;4;sawing;stapling;23;Scrambled0.png;62;12;M2_S3_I0;2;3;0;0;4168
1;1;washingface;washingface;11;Bathroom3.png;13;66;M4_S1_I0;4;1;0;0;6769
2;2;chopping;chopping;2;Bathroom2.png;12;59;M3_S1_I1;3;1;1;0;3791
1;4;painting;painting;7;Garage3.png;43;26;M4_S3_I0;4;3;0;2;1078
1;1;shampooing;shampooing;9;Bathroom1.png;11;16;M5_S1_I0;5;1;0;0;5495
2;3;sharpeningpencil;sharpeningpencil;10;Kitchen1.png;21;41;M4_S2_I1;4;2;1;2;1706
2;1;brushingteeth;brushingteeth;1;Kitchen5.png;25;37;M4_S2_I0;4;2;0;2;1348
3;3;writingwall;writingwall;12;Scrambled3.png;52;72;M2_S3_I0;2;3;0;2;1978
2;2;grating;grating;4;Garage2.png;42;83;M4_S2_I0;4;2;0;2;5111
3;3;writingwall;writingwall;12;Scrambled4.png;53;53;M5_S1_I0;5;1;0;0;4151
1;1;shampooing;shampooing;9;Bathroom2.png;12;61;M2_S2_I0;2;2;0;2;1599
2;4;painting;painting;7;Kitchen5.png;25;47;M3_S1_I1;3;1;1;0;6459
2;3;writingwall;writingwall;12;Kitchen4.png;24;29;M2_S1_I0;2;1;0;2;1319
1;4;screwing;screwing;8;Garage2.png;42;77;M2_S2_I1;2;2;1;2;1137
1;2;openingbottle;openingbottle;6;Kitchen4.png;24;71;M2_S1_I1;2;1;1;2;1361
2;2;grating;grating;4;Office2.png;32;22;M3_S1_I1;3;1;1;2;3400
2;1;washingface;washingface;11;Office5.png;35;48;M3_S1_I1;3;1;1;2;1678
1;4;hammering;hammering;5;Garage3.png;43;78;M5_S2_I1;5;2;1;2;2761
3;3;erasing;erasing;3;Scrambled9.png;58;64;M5_S3_I1;5;3;1;0;5271
3;1;brushingteeth;brushingteeth;1;Scrambled7.png;56;73;M3_S1_I0;3;1;0;1;5424
2;2;grating;grating;4;Bathroom1.png;11;62;M4_S2_I1;4;2;1;2;5139
3;2;chopping;chopping;2;Scrambled1.png;50;65;M2_S2_I1;2;2;1;0;4418
2;4;painting;painting;7;Office1.png;31;36;M5_S1_I0;5;1;0;0;2782
2;3;writingwall;writingwall;12;Kitchen1.png;21;39;M2_S1_I1;2;1;1;0;2348
1;3;writingwall;writingwall;12;Office2.png;32;67;M4_S3_I1;4;3;1;2;1421
2;3;sharpeningpencil;sharpeningpencil;10;Bathroom3.png;13;80;M5_S1_I0;5;1;0;2;3025
2;3;erasing;erasing;3;Garage5.png;45;34;M4_S3_I0;4;3;0;0;4770
1;2;chopping;chopping;2;Kitchen2.png;22;44;M5_S3_I0;5;3;0;2;1961
2;1;shampooing;shampooing;9;Garage5.png;45;49;M5_S1_I1;5;1;1;1;2258
1;1;brushingteeth;brushingteeth;1;Bathroom1.png;11;60;M4_S3_I1;4;3;1;2;3757
2;2;openingbottle;openingbottle;6;Office5.png;35;15;M4_S3_I1;4;3;1;1;4236
3;1;shampooing;shampooing;9;Scrambled1.png;50;81;M3_S3_I1;3;3;1;2;1337
3;2;openingbottle;openingbottle;6;Scrambled7.png;56;52;M2_S2_I0;2;2;0;1;5336
2;4;screwing;screwing;8;Bathroom5.png;15;84;M2_S3_I0;2;3;0;2;1257
3;4;hammering;hammering;5;Scrambled9.png;58;23;M3_S3_I1;3;3;1;2;991
3;1;washingface;washingface;11;Scrambled10.png;59;24;M3_S2_I0;3;2;0;2;1310
3;2;grating;grating;4;Scrambled6.png;55;35;M2_S2_I0;2;2;0;2;1696
1;2;openingbottle;openingbottle;6;Kitchen2.png;22;68;M3_S2_I0;3;2;0;2;806
3;4;screwing;screwing;8;Scrambled2.png;51;45;M2_S2_I0;2;2;0;2;1156
1;4;painting;painting;7;Garage5.png;45;32;M3_S3_I0;3;3;0;2;4066
2;4;hammering;hammering;5;Office5.png;35;28;M5_S3_I0;5;3;0;2;1148
1;3;sharpeningpencil;sharpeningpencil;10;Office5.png;35;17;M3_S2_I0;3;2;0;2;3386
3;3;sharpeningpencil;sharpeningpencil;10;Scrambled5.png;54;27;M4_S1_I0;4;1;0;2;2400
1;2;grating;grating;4;Kitchen3.png;23;55;M5_S3_I0;5;3;0;2;3213
1;4;painting;painting;7;Garage5.png;45;21;M3_S2_I0;3;2;0;0;1707
2;4;painting;painting;7;Bathroom1.png;11;82;M4_S2_I0;4;2;0;2;3332
3;4;painting;painting;7;Scrambled6.png;55;76;M3_S3_I1;3;3;1;2;3051
1;1;washingface;washingface;11;Bathroom3.png;13;75;M4_S1_I1;4;1;1;0;4510
3;4;hammering;hammering;5;Scrambled4.png;53;63;M2_S3_I1;2;3;1;2;1304
2;1;brushingteeth;brushingteeth;1;Kitchen2.png;22;38;M3_S1_I1;3;1;1;2;4544
3;1;shampooing;shampooing;9;Scrambled4.png;53;13;M4_S3_I0;4;3;0;2;1944
2;4;screwing;screwing;8;Office3.png;33;46;M2_S1_I1;2;1;1;2;1417
2;1;washingface;washingface;11;Garage2.png;42;50;M2_S3_I0;2;3;0;2;3373
1;1;shampooing;shampooing;9;Bathroom4.png;14;56;M3_S2_I1;3;2;1;2;1684
1;1;washingface;washingface;11;Bathroom2.png;12;43;M2_S3_I1;2;3;1;2;927
2;1;shampooing;shampooing;9;Kitchen5.png;25;14;M4_S1_I1;4;1;1;1;1320
1;4;hammering;hammering;5;Garage4.png;44;19;M4_S1_I0;4;1;0;0;4127
3;1;washingface;washingface;11;Scrambled3.png;52;54;M5_S1_I1;5;1;1;2;1208
3;2;chopping;chopping;2;Scrambled5.png;54;57;M2_S1_I1;2;1;1;2;3716
2;2;openingbottle;openingbottle;6;Office5.png;35;51;M2_S1_I0;2;1;0;1;1646
3;1;washingface;washingface;11;Scrambled6.png;55;58;M4_S2_I0;4;2;0;2;5864
2;2;openingbottle;openingbottle;6;Garage3.png;43;42;M5_S2_I0;5;2;0;2;1371
2;4;screwing;screwing;8;Office4.png;34;74;M2_S3_I1;2;3;1;2;1091
3;4;painting;painting;7;Scrambled3.png;52;25;M2_S3_I0;2;3;0;2;1398
2;4;screwing;screwing;8;Kitchen2.png;22;30;M4_S1_I0;4;1;0;0;3131
2;2;openingbottle;openingbottle;6;Bathroom4.png;14;69;M4_S2_I1;4;2;1;2;1772
1;2;chopping;chopping;2;Kitchen3.png;23;20;M4_S3_I1;4;3;1;1;2770
1;1;shampooing;shampooing;9;Bathroom5.png;15;33;M4_S2_I0;4;2;0;2;1842
1;2;openingbottle;openingbottle;6;Kitchen1.png;21;79;M2_S2_I1;2;2;1;2;1222
1;2;chopping;chopping;2;Kitchen3.png;23;18;M5_S2_I1;5;2;1;2;4274
3;2;chopping;chopping;2;Scrambled1.png;50;31;M5_S3_I1;5;3;1;0;4783
3;2;grating;grating;4;Scrambled5.png;54;40;M2_S1_I1;2;1;1;2;4644
3;1;shampooing;shampooing;9;Scrambled3.png;52;70;M5_S3_I0;5;3;0;2;1394
1;2;openingbottle;openingbottle;6;Kitchen5.png;25;94;M5_S3_I0;5;3;0;2;1201
1;3;erasing;erasing;3;Office5.png;35;107;M2_S3_I0;2;3;0;2;4841
3;2;openingbottle;openingbottle;6;Scrambled5.png;54;122;M4_S2_I0;4;2;0;2;1358
1;1;brushingteeth;brushingteeth;1;Bathroom5.png;15;132;M4_S3_I0;4;3;0;2;1599
2;4;hammering;hammering;5;Kitchen4.png;24;86;M2_S2_I1;2;2;1;1;6531
2;3;sharpeningpencil;sharpeningpencil;10;Kitchen2.png;22;106;M5_S2_I1;5;2;1;2;2324
1;2;grating;grating;4;Kitchen2.png;22;104;M4_S1_I1;4;1;1;0;2957
2;3;erasing;erasing;3;Kitchen4.png;24;127;M3_S3_I0;3;3;0;2;1582
2;3;erasing;erasing;3;Kitchen2.png;22;89;M2_S2_I0;2;2;0;2;1467
1;1;washingface;washingface;11;Bathroom3.png;13;149;M2_S2_I1;2;2;1;2;1468
2;4;screwing;screwing;8;Office4.png;34;140;M4_S3_I0;4;3;0;0;2255
2;1;brushingteeth;brushingteeth;1;Garage2.png;42;142;M4_S1_I0;4;1;0;2;4081
2;2;chopping;chopping;2;Bathroom2.png;12;112;M4_S1_I0;4;1;0;2;2460
3;3;erasing;erasing;3;Scrambled3.png;52;100;M3_S1_I0;3;1;0;0;3446
1;1;shampooing;shampooing;9;Bathroom4.png;14;151;M4_S1_I0;4;1;0;2;1675
1;3;writingwall;writingwall;12;Office5.png;35;105;M2_S3_I1;2;3;1;2;1462
3;2;openingbottle;openingbottle;6;Scrambled5.png;54;113;M2_S3_I0;2;3;0;1;3353
3;4;hammering;hammering;5;Scrambled7.png;56;121;M2_S3_I0;2;3;0;2;1488
2;4;screwing;screwing;8;Kitchen2.png;22;123;M3_S2_I0;3;2;0;2;3170
2;2;grating;grating;4;Office3.png;33;120;M3_S1_I0;3;1;0;2;4271
3;1;brushingteeth;brushingteeth;1;Scrambled5.png;54;124;M2_S3_I0;2;3;0;2;2802
2;1;brushingteeth;brushingteeth;1;Garage2.png;42;136;M5_S2_I0;5;2;0;2;4398
3;3;erasing;erasing;3;Scrambled6.png;55;92;M3_S1_I1;3;1;1;1;5018
2;4;screwing;screwing;8;Bathroom2.png;12;108;M3_S1_I1;3;1;1;2;3055
3;4;screwing;screwing;8;Scrambled8.png;57;101;M4_S3_I1;4;3;1;2;1907
3;4;hammering;hammering;5;Scrambled8.png;57;138;M4_S1_I1;4;1;1;1;3827
3;1;brushingteeth;brushingteeth;1;Scrambled5.png;54;87;M2_S1_I0;2;1;0;2;4982
1;3;sharpeningpencil;sharpeningpencil;10;Office1.png;31;137;M3_S3_I1;3;3;1;0;3788
2;1;shampooing;shampooing;9;Garage3.png;43;109;M2_S3_I1;2;3;1;2;1603
3;1;shampooing;shampooing;9;Scrambled1.png;50;111;M2_S1_I1;2;1;1;2;1617
3;2;openingbottle;openingbottle;6;Scrambled9.png;58;96;M5_S3_I1;5;3;1;2;1166
2;3;erasing;erasing;3;Kitchen5.png;25;116;M5_S1_I0;5;1;0;0;1631
3;2;grating;grating;4;Scrambled5.png;54;85;M4_S1_I0;4;1;0;2;2236
2;2;openingbottle;openingbottle;6;Garage3.png;43;99;M4_S1_I1;4;1;1;2;2032
3;3;writingwall;writingwall;12;Scrambled6.png;55;97;M4_S2_I1;4;2;1;2;1612
1;2;chopping;chopping;2;Kitchen2.png;22;110;M3_S3_I1;3;3;1;2;4648
2;4;screwing;screwing;8;Kitchen4.png;24;102;M5_S1_I1;5;1;1;2;1501
3;4;screwing;screwing;8;Scrambled3.png;52;118;M4_S2_I1;4;2;1;0;1919
3;1;brushingteeth;brushingteeth;1;Scrambled1.png;50;146;M5_S3_I1;5;3;1;1;2241
1;2;grating;grating;4;Kitchen1.png;21;145;M5_S1_I0;5;1;0;2;3908
3;4;screwing;screwing;8;Scrambled9.png;58;156;M3_S3_I1;3;3;1;2;1797
1;4;painting;painting;7;Garage1.png;41;152;M5_S2_I1;5;2;1;2;2515
1;4;painting;painting;7;Garage3.png;43;144;M3_S1_I0;3;1;0;2;1652
1;3;erasing;erasing;3;Office2.png;32;88;M3_S2_I0;3;2;0;0;1672
1;3;sharpeningpencil;sharpeningpencil;10;Office5.png;35;139;M4_S3_I1;4;3;1;0;4714
1;1;washingface;washingface;11;Bathroom3.png;13;114;M4_S2_I1;4;2;1;2;1317
2;1;shampooing;shampooing;9;Kitchen2.png;22;126;M4_S2_I1;4;2;1;2;1879
3;3;erasing;erasing;3;Scrambled7.png;56;133;M2_S2_I1;2;2;1;2;5329
3;3;writingwall;writingwall;12;Scrambled4.png;53;150;M3_S2_I0;3;2;0;2;1506
1;3;sharpeningpencil;sharpeningpencil;10;Office1.png;31;143;M4_S3_I0;4;3;0;2;6074
1;1;brushingteeth;brushingteeth;1;Bathroom5.png;15;155;M2_S2_I0;2;2;0;2;1710
3;4;hammering;hammering;5;Scrambled2.png;51;141;M5_S2_I0;5;2;0;0;1186
3;1;brushingteeth;brushingteeth;1;Scrambled10.png;59;90;M2_S1_I1;2;1;1;2;3504
2;3;writingwall;writingwall;12;Garage3.png;43;91;M3_S1_I0;3;1;0;2;3233
3;3;writingwall;writingwall;12;Scrambled8.png;57;129;M2_S2_I1;2;2;1;2;1517
2;3;sharpeningpencil;sharpeningpencil;10;Bathroom4.png;14;134;M2_S1_I1;2;1;1;2;3358
1;1;washingface;washingface;11;Bathroom2.png;12;154;M2_S1_I0;2;1;0;2;1716
3;4;painting;painting;7;Scrambled1.png;50;95;M5_S2_I0;5;2;0;2;1357
3;3;sharpeningpencil;sharpeningpencil;10;Scrambled1.png;50;103;M3_S1_I0;3;1;0;2;2644
3;3;sharpeningpencil;sharpeningpencil;10;Scrambled10.png;59;115;M5_S1_I1;5;1;1;2;1562
2;2;chopping;chopping;2;Garage5.png;45;128;M4_S1_I1;4;1;1;0;4839
2;4;hammering;hammering;5;Office2.png;32;135;M4_S2_I0;4;2;0;2;3730
1;2;grating;grating;4;Kitchen4.png;24;125;M3_S2_I1;3;2;1;2;4186
3;4;painting;painting;7;Scrambled10.png;59;93;M2_S1_I1;2;1;1;2;2832
2;1;brushingteeth;brushingteeth;1;Kitchen4.png;24;117;M3_S3_I1;3;3;1;2;1533
1;1;brushingteeth;brushingteeth;1;Bathroom2.png;12;153;M2_S2_I1;2;2;1;2;3132
2;3;sharpeningpencil;sharpeningpencil;10;Kitchen5.png;25;130;M4_S2_I0;4;2;0;0;2412
1;4;screwing;screwing;8;Garage2.png;42;147;M4_S1_I1;4;1;1;2;3496
3;3;erasing;erasing;3;Scrambled5.png;54;119;M4_S2_I0;4;2;0;2;2186
3;3;sharpeningpencil;sharpeningpencil;10;Scrambled4.png;53;98;M2_S2_I1;2;2;1;2;2256
2;4;painting;painting;7;Kitchen4.png;24;148;M5_S1_I1;5;1;1;2;1540
3;4;painting;painting;7;Scrambled1.png;50;131;M2_S3_I1;2;3;1;2;1461
3;2;openingbottle;openingbottle;6;Scrambled6.png;55;177;M4_S1_I0;4;1;0;2;1608
2;1;washingface;washingface;11;Kitchen1.png;21;170;M5_S2_I0;5;2;0;2;1293
2;4;painting;painting;7;Office2.png;32;200;M4_S1_I1;4;1;1;2;2263
2;2;grating;grating;4;Office1.png;31;182;M4_S3_I1;4;3;1;0;4249
1;1;shampooing;shampooing;9;Bathroom5.png;15;218;M2_S1_I0;2;1;0;2;1726
3;4;painting;painting;7;Scrambled7.png;56;219;M2_S2_I0;2;2;0;2;1335
3;3;sharpeningpencil;sharpeningpencil;10;Scrambled9.png;58;161;M4_S1_I1;4;1;1;2;3374
2;2;chopping;chopping;2;Garage2.png;42;162;M4_S2_I1;4;2;1;2;4771
1;2;chopping;chopping;2;Kitchen2.png;22;165;M3_S3_I0;3;3;0;2;2802
2;3;erasing;erasing;3;Garage3.png;43;190;M3_S2_I1;3;2;1;2;3935
3;2;openingbottle;openingbottle;6;Scrambled4.png;53;222;M5_S1_I0;5;1;0;2;1967
1;1;washingface;washingface;11;Bathroom5.png;15;185;M3_S3_I0;3;3;0;1;2445
2;1;brushingteeth;brushingteeth;1;Garage1.png;41;221;M3_S2_I1;3;2;1;2;2210
2;4;hammering;hammering;5;Office3.png;33;181;M4_S3_I1;4;3;1;5;7074
2;3;erasing;erasing;3;Kitchen1.png;21;206;M4_S1_I0;4;1;0;2;4615
2;2;chopping;chopping;2;Bathroom4.png;14;186;M5_S2_I0;5;2;0;2;2149
1;2;chopping;chopping;2;Kitchen5.png;25;172;M2_S2_I0;2;2;0;2;2293
1;3;sharpeningpencil;sharpeningpencil;10;Office4.png;34;201;M3_S3_I0;3;3;0;2;4223
3;1;washingface;washingface;11;Scrambled7.png;56;189;M2_S2_I0;2;2;0;2;5418
2;1;shampooing;shampooing;9;Garage3.png;43;207;M2_S3_I0;2;3;0;2;1832
3;1;washingface;washingface;11;Scrambled7.png;56;192;M5_S2_I1;5;2;1;0;4771
1;2;grating;grating;4;Kitchen4.png;24;215;M4_S3_I0;4;3;0;0;4122
2;1;brushingteeth;brushingteeth;1;Garage3.png;43;184;M3_S3_I0;3;3;0;0;4346
1;3;sharpeningpencil;sharpeningpencil;10;Office2.png;32;196;M2_S1_I0;2;1;0;2;3146
3;3;writingwall;writingwall;12;Scrambled4.png;53;205;M2_S2_I0;2;2;0;2;2042
1;4;screwing;screwing;8;Garage4.png;44;174;M2_S1_I0;2;1;0;0;2022
1;1;brushingteeth;brushingteeth;1;Bathroom2.png;12;191;M5_S2_I1;5;2;1;2;1715
2;3;writingwall;writingwall;12;Kitchen2.png;22;173;M3_S3_I1;3;3;1;2;2796
3;3;sharpeningpencil;sharpeningpencil;10;Scrambled1.png;50;164;M5_S3_I1;5;3;1;0;3657
3;4;painting;painting;7;Scrambled9.png;58;163;M5_S3_I0;5;3;0;2;2245
1;4;painting;painting;7;Garage3.png;43;166;M4_S1_I0;4;1;0;2;3065
1;1;shampooing;shampooing;9;Bathroom1.png;11;199;M5_S3_I1;5;3;1;2;2171
1;2;openingbottle;openingbottle;6;Kitchen1.png;21;227;M3_S1_I0;3;1;0;2;1170
2;4;hammering;hammering;5;Office4.png;34;225;M5_S1_I0;5;1;0;2;2960
2;1;washingface;washingface;11;Garage3.png;43;194;M5_S3_I1;5;3;1;2;4871
2;2;openingbottle;openingbottle;6;Bathroom5.png;15;157;M5_S1_I1;5;1;1;1;2353
3;2;chopping;chopping;2;Scrambled8.png;57;214;M4_S2_I0;4;2;0;2;3313
1;4;hammering;hammering;5;Garage2.png;42;180;M2_S2_I0;2;2;0;1;6023
2;1;washingface;washingface;11;Kitchen3.png;23;198;M4_S3_I0;4;3;0;2;3987
2;2;grating;grating;4;Office3.png;33;197;M5_S2_I0;5;2;0;0;2897
2;3;writingwall;writingwall;12;Garage3.png;43;203;M5_S3_I0;5;3;0;2;1643
1;3;erasing;erasing;3;Office3.png;33;176;M5_S2_I0;5;2;0;5;7074
2;3;writingwall;writingwall;12;Kitchen4.png;24;158;M5_S1_I1;5;1;1;2;1224
1;3;sharpeningpencil;sharpeningpencil;10;Office1.png;31;193;M5_S2_I0;5;2;0;2;2213
2;1;shampooing;shampooing;9;Office5.png;35;204;M3_S1_I1;3;1;1;2;2713
3;2;chopping;chopping;2;Scrambled3.png;52;213;M4_S3_I0;4;3;0;0;3961
1;2;grating;grating;4;Kitchen3.png;23;209;M2_S1_I0;2;1;0;2;3752
1;2;chopping;chopping;2;Kitchen4.png;24;217;M2_S3_I1;2;3;1;2;3310
1;3;writingwall;writingwall;12;Office2.png;32;178;M5_S2_I1;5;2;1;0;5174
1;4;hammering;hammering;5;Garage3.png;43;202;M3_S2_I1;3;2;1;2;1349
1;1;shampooing;shampooing;9;Bathroom3.png;13;224;M3_S1_I0;3;1;0;2;1533
2;3;writingwall;writingwall;12;Garage4.png;44;168;M4_S1_I1;4;1;1;1;4349
1;3;writingwall;writingwall;12;Office3.png;33;160;M4_S2_I0;4;2;0;2;1742
2;2;chopping;chopping;2;Garage2.png;42;171;M3_S2_I0;3;2;0;2;5220
1;3;erasing;erasing;3;Office2.png;32;187;M2_S1_I1;2;1;1;0;3120
1;1;brushingteeth;brushingteeth;1;Bathroom3.png;13;195;M4_S2_I1;4;2;1;2;1341
1;2;chopping;chopping;2;Kitchen3.png;23;208;M2_S1_I0;2;1;0;2;2349
3;1;shampooing;shampooing;9;Scrambled3.png;52;211;M2_S2_I1;2;2;1;2;1526
3;4;screwing;screwing;8;Scrambled5.png;54;210;M5_S2_I1;5;2;1;2;1456
1;4;hammering;hammering;5;Garage2.png;42;223;M5_S3_I1;5;3;1;0;2972
2;4;hammering;hammering;5;Kitchen2.png;22;226;M3_S1_I0;3;1;0;2;5609
2;3;sharpeningpencil;sharpeningpencil;10;Kitchen5.png;25;169;M5_S3_I0;5;3;0;2;3342
1;4;screwing;screwing;8;Garage4.png;44;216;M4_S2_I0;4;2;0;1;2047
1;3;erasing;erasing;3;Office3.png;33;167;M5_S1_I1;5;1;1;2;4946
1;1;washingface;washingface;11;Bathroom2.png;12;159;M5_S1_I0;5;1;0;2;4897
2;1;shampooing;shampooing;9;Office2.png;32;183;M5_S2_I0;5;2;0;2;2099
3;1;washingface;washingface;11;Scrambled5.png;54;212;M3_S1_I0;3;1;0;0;3708
1;1;brushingteeth;brushingteeth;1;Bathroom1.png;11;228;M4_S1_I1;4;1;1;2;3205
3;2;chopping;chopping;2;Scrambled5.png;54;220;M3_S2_I1;3;2;1;0;5312
2;4;hammering;hammering;5;Kitchen4.png;24;179;M2_S1_I1;2;1;1;2;1274
2;2;openingbottle;openingbottle;6;Office5.png;35;188;M2_S3_I1;2;3;1;0;3156
3;2;grating;grating;4;Scrambled9.png;58;175;M3_S3_I0;3;3;0;1;3587
1;3;writingwall;writingwall;12;Office2.png;32;292;M3_S2_I1;3;2;1;1;5663
3;1;washingface;washingface;11;Scrambled5.png;54;257;M3_S3_I1;3;3;1;1;1521
1;4;screwing;screwing;8;Garage2.png;42;244;M5_S1_I0;5;1;0;2;1107
3;2;grating;grating;4;Scrambled4.png;53;268;M5_S1_I1;5;1;1;0;4083
3;1;brushingteeth;brushingteeth;1;Scrambled1.png;50;280;M3_S2_I0;3;2;0;1;4523
3;1;shampooing;shampooing;9;Scrambled3.png;52;250;M5_S2_I1;5;2;1;2;1684
3;3;erasing;erasing;3;Scrambled7.png;56;295;M2_S1_I0;2;1;0;0;2366
1;3;erasing;erasing;3;Office3.png;33;270;M4_S2_I1;4;2;1;2;4924
3;3;writingwall;writingwall;12;Scrambled10.png;59;267;M3_S3_I0;3;3;0;2;3668
2;2;chopping;chopping;2;Garage2.png;42;277;M5_S1_I0;5;1;0;1;2782
3;3;writingwall;writingwall;12;Scrambled1.png;50;260;M3_S1_I1;3;1;1;2;1390
1;3;writingwall;writingwall;12;Office1.png;31;299;M4_S1_I0;4;1;0;2;1205
3;2;chopping;chopping;2;Scrambled4.png;53;269;M5_S1_I1;5;1;1;1;4289
3;4;hammering;hammering;5;Scrambled10.png;59;275;M2_S1_I0;2;1;0;2;1875
3;4;screwing;screwing;8;Scrambled4.png;53;283;M3_S3_I0;3;3;0;0;5253
2;2;grating;grating;4;Office5.png;35;248;M3_S3_I1;3;3;1;2;4079
1;3;erasing;erasing;3;Office4.png;34;289;M4_S1_I1;4;1;1;2;3417
3;2;chopping;chopping;2;Scrambled5.png;54;272;M2_S3_I0;2;3;0;0;5933
1;1;brushingteeth;brushingteeth;1;Bathroom5.png;15;245;M5_S1_I0;5;1;0;2;2844
2;1;brushingteeth;brushingteeth;1;Garage1.png;41;252;M5_S1_I1;5;1;1;2;1289
3;2;openingbottle;openingbottle;6;Scrambled9.png;58;298;M3_S2_I1;3;2;1;2;1284
1;4;hammering;hammering;5;Garage4.png;44;300;M3_S1_I1;3;1;1;2;2509
2;3;sharpeningpencil;sharpeningpencil;10;Bathroom4.png;14;255;M2_S3_I0;2;3;0;2;3190
1;3;sharpeningpencil;sharpeningpencil;10;Office4.png;34;249;M3_S2_I1;3;2;1;2;5395
2;4;painting;painting;7;Bathroom1.png;11;278;M2_S2_I1;2;2;1;2;1337
3;2;openingbottle;openingbottle;6;Scrambled9.png;58;296;M5_S2_I1;5;2;1;2;1378
2;2;openingbottle;openingbottle;6;Office4.png;34;262;M3_S1_I1;3;1;1;2;2903
3;4;hammering;hammering;5;Scrambled3.png;52;254;M3_S2_I0;3;2;0;2;1802
3;1;shampooing;shampooing;9;Scrambled9.png;58;247;M4_S3_I1;4;3;1;2;1720
3;1;brushingteeth;brushingteeth;1;Scrambled7.png;56;281;M2_S3_I1;2;3;1;2;2410
3;4;screwing;screwing;8;Scrambled3.png;52;297;M3_S2_I1;3;2;1;2;1729
3;1;shampooing;shampooing;9;Scrambled9.png;58;265;M3_S2_I0;3;2;0;2;1842
1;4;screwing;screwing;8;Garage4.png;44;251;M3_S1_I0;3;1;0;2;3454
1;2;openingbottle;openingbottle;6;Kitchen3.png;23;246;M3_S3_I1;3;3;1;2;1451
3;4;screwing;screwing;8;Scrambled10.png;59;243;M5_S3_I1;5;3;1;2;4454
3;3;erasing;erasing;3;Scrambled2.png;51;232;M2_S3_I1;2;3;1;2;3338
1;2;grating;grating;4;Kitchen2.png;22;234;M5_S2_I1;5;2;1;0;2986
1;3;writingwall;writingwall;12;Office4.png;34;259;M4_S3_I0;4;3;0;2;1242
2;3;sharpeningpencil;sharpeningpencil;10;Garage5.png;45;229;M2_S2_I0;2;2;0;2;2871
3;3;erasing;erasing;3;Scrambled4.png;53;237;M4_S3_I1;4;3;1;0;3153
1;4;hammering;hammering;5;Garage3.png;43;274;M4_S3_I0;4;3;0;0;4975
3;3;sharpeningpencil;sharpeningpencil;10;Scrambled5.png;54;256;M2_S3_I1;2;3;1;2;2502
1;4;screwing;screwing;8;Garage1.png;41;291;M5_S3_I0;5;3;0;1;2160
1;4;painting;painting;7;Garage3.png;43;242;M5_S3_I1;5;3;1;2;1608
1;2;grating;grating;4;Kitchen4.png;24;266;M2_S2_I1;2;2;1;0;5268
3;4;painting;painting;7;Scrambled3.png;52;285;M2_S1_I0;2;1;0;2;1135
1;3;erasing;erasing;3;Office2.png;32;261;M5_S3_I0;5;3;0;2;3359
3;2;grating;grating;4;Scrambled9.png;58;286;M2_S3_I1;2;3;1;0;2837
2;2;grating;grating;4;Bathroom5.png;15;287;M2_S3_I0;2;3;0;5;7074
1;4;hammering;hammering;5;Garage2.png;42;258;M4_S2_I1;4;2;1;2;2273
1;2;openingbottle;openingbottle;6;Kitchen2.png;22;235;M3_S3_I0;3;3;0;2;1188
1;2;openingbottle;openingbottle;6;Kitchen3.png;23;290;M4_S3_I0;4;3;0;2;1043
2;3;writingwall;writingwall;12;Kitchen2.png;22;284;M5_S3_I1;5;3;1;0;5509
2;1;washingface;washingface;11;Office3.png;33;282;M4_S3_I1;4;3;1;0;4230
2;3;erasing;erasing;3;Garage5.png;45;294;M3_S3_I1;3;3;1;0;3098
3;1;brushingteeth;brushingteeth;1;Scrambled4.png;53;263;M5_S3_I0;5;3;0;2;2620
3;1;washingface;washingface;11;Scrambled1.png;50;233;M3_S2_I1;3;2;1;2;1346
1;4;screwing;screwing;8;Garage4.png;44;253;M5_S2_I0;5;2;0;2;1594
2;1;washingface;washingface;11;Garage5.png;45;293;M5_S3_I0;5;3;0;2;6055
2;4;painting;painting;7;Kitchen4.png;24;230;M3_S2_I1;3;2;1;2;3522
3;2;grating;grating;4;Scrambled7.png;56;240;M5_S3_I1;5;3;1;0;2419
1;3;writingwall;writingwall;12;Office1.png;31;273;M5_S2_I0;5;2;0;2;2432
3;3;sharpeningpencil;sharpeningpencil;10;Scrambled8.png;57;279;M3_S1_I1;3;1;1;2;3053
3;2;grating;grating;4;Scrambled1.png;50;239;M3_S2_I0;3;2;0;0;2065
2;2;chopping;chopping;2;Garage5.png;45;288;M3_S1_I0;3;1;0;0;3947
2;4;hammering;hammering;5;Bathroom5.png;15;238;M3_S3_I0;3;3;0;0;4202
2;3;erasing;erasing;3;Garage5.png;45;276;M5_S2_I1;5;2;1;2;3423
2;4;painting;painting;7;Kitchen5.png;25;231;M4_S2_I1;4;2;1;2;2180
2;1;washingface;washingface;11;Kitchen5.png;25;264;M2_S1_I1;2;1;1;2;2730
1;4;painting;painting;7;Garage3.png;43;271;M4_S3_I1;4;3;1;0;3625
3;4;hammering;hammering;5;Scrambled8.png;57;241;M5_S1_I1;5;1;1;0;3395
2;1;shampooing;shampooing;9;Office1.png;31;236;M3_S3_I0;3;3;0;2;1602
