Condition;Action;Task;VideoFile;NumberVideoFile;ImageFile;NumberImageFile;TrialNum;VideoConfiguration;VideoMarker;VideoSize;VideoMirror;Response;ReactionTime;
1;4;sawing;sawing;24;Garage0.png;66;4;M2_S3_I0;2;3;0;2;4553
2;1;combing;combing;21;Kitchen0.png;64;5;M2_S3_I0;2;3;0;0;4236
2;2;openingbeer;openingbeer;22;Garage0.png;66;2;M2_S3_I0;2;3;0;0;4477
3;2;openingbeer;openingbeer;22;Scrambled0.png;62;6;M1_S3_I0;1;3;0;0;4052
3;3;stapling;stapling;23;Scrambled01.png;61;3;M1_S3_I0;1;3;0;2;2138
1;1;combing;combing;21;Bathroom0.png;63;1;M1_S3_I0;1;3;0;0;2557
1;4;sawing;sawing;24;Garage0.png;66;7;M2_S3_I0;2;3;0;0;6374
3;4;sawing;stapling;23;Scrambled0.png;62;12;M2_S3_I0;2;3;0;0;2833
2;3;stapling;sawing;24;Bathroom0.png;63;11;M1_S3_I0;1;3;0;0;3961
3;2;openingbeer;openingbeer;22;Scrambled01.png;61;9;M2_S3_I0;2;3;0;0;3507
1;1;combing;combing;21;Kitchen0.png;64;10;M1_S3_I0;1;3;0;0;2109
2;3;stapling;stapling;23;Bathroom0.png;63;8;M2_S3_I0;2;3;0;2;3135
3;4;hammering;hammering;5;Scrambled9.png;58;23;M3_S3_I1;3;3;1;2;5635
3;1;shampooing;shampooing;9;Scrambled4.png;53;13;M4_S3_I0;4;3;0;2;3122
3;2;chopping;chopping;2;Scrambled1.png;50;31;M5_S3_I1;5;3;1;1;3846
2;3;sharpeningpencil;sharpeningpencil;10;Kitchen1.png;21;41;M4_S2_I1;4;2;1;5;7074
1;1;washingface;washingface;11;Bathroom3.png;13;75;M4_S1_I1;4;1;1;0;2562
1;4;painting;painting;7;Garage5.png;45;32;M3_S3_I0;3;3;0;2;2714
3;4;hammering;hammering;5;Scrambled4.png;53;63;M2_S3_I1;2;3;1;2;5053
3;3;erasing;erasing;3;Scrambled9.png;58;64;M5_S3_I1;5;3;1;0;4164
1;4;painting;painting;7;Garage3.png;43;26;M4_S3_I0;4;3;0;2;2567
2;4;screwing;screwing;8;Bathroom5.png;15;84;M2_S3_I0;2;3;0;2;3481
2;2;grating;grating;4;Garage2.png;42;83;M4_S2_I0;4;2;0;0;3816
3;1;washingface;washingface;11;Scrambled10.png;59;24;M3_S2_I0;3;2;0;0;2025
1;2;chopping;chopping;2;Kitchen3.png;23;18;M5_S2_I1;5;2;1;0;2961
3;4;painting;painting;7;Scrambled3.png;52;25;M2_S3_I0;2;3;0;2;2579
2;4;painting;painting;7;Bathroom1.png;11;82;M4_S2_I0;4;2;0;0;2740
1;4;painting;painting;7;Garage5.png;45;21;M3_S2_I0;3;2;0;2;3376
2;4;painting;painting;7;Kitchen5.png;25;47;M3_S1_I1;3;1;1;0;3378
2;2;chopping;chopping;2;Bathroom2.png;12;59;M3_S1_I1;3;1;1;1;4341
1;3;writingwall;writingwall;12;Office2.png;32;67;M4_S3_I1;4;3;1;0;4514
2;3;erasing;erasing;3;Garage5.png;45;34;M4_S3_I0;4;3;0;2;4295
2;2;openingbottle;openingbottle;6;Office5.png;35;51;M2_S1_I0;2;1;0;0;5206
2;1;brushingteeth;brushingteeth;1;Kitchen5.png;25;37;M4_S2_I0;4;2;0;0;3263
3;2;chopping;chopping;2;Scrambled5.png;54;57;M2_S1_I1;2;1;1;0;3589
3;3;sharpeningpencil;sharpeningpencil;10;Scrambled5.png;54;27;M4_S1_I0;4;1;0;2;3117
3;2;grating;grating;4;Scrambled6.png;55;35;M2_S2_I0;2;2;0;0;2522
1;1;shampooing;shampooing;9;Bathroom1.png;11;16;M5_S1_I0;5;1;0;0;3488
3;1;shampooing;shampooing;9;Scrambled1.png;50;81;M3_S3_I1;3;3;1;0;3213
1;3;sharpeningpencil;sharpeningpencil;10;Office5.png;35;17;M3_S2_I0;3;2;0;0;2870
2;3;sharpeningpencil;sharpeningpencil;10;Bathroom3.png;13;80;M5_S1_I0;5;1;0;0;4061
3;1;brushingteeth;brushingteeth;1;Scrambled7.png;56;73;M3_S1_I0;3;1;0;1;3412
1;4;hammering;hammering;5;Garage4.png;44;19;M4_S1_I0;4;1;0;0;5607
2;1;brushingteeth;brushingteeth;1;Kitchen2.png;22;38;M3_S1_I1;3;1;1;2;1789
3;2;openingbottle;openingbottle;6;Scrambled7.png;56;52;M2_S2_I0;2;2;0;2;2206
1;2;chopping;chopping;2;Kitchen3.png;23;20;M4_S3_I1;4;3;1;0;4480
2;1;washingface;washingface;11;Office5.png;35;48;M3_S1_I1;3;1;1;2;4071
2;1;shampooing;shampooing;9;Garage5.png;45;49;M5_S1_I1;5;1;1;0;2940
3;4;painting;painting;7;Scrambled6.png;55;76;M3_S3_I1;3;3;1;2;2063
2;3;writingwall;writingwall;12;Kitchen4.png;24;29;M2_S1_I0;2;1;0;2;1557
3;3;writingwall;writingwall;12;Scrambled3.png;52;72;M2_S3_I0;2;3;0;2;1340
1;4;hammering;hammering;5;Garage3.png;43;78;M5_S2_I1;5;2;1;2;3056
3;3;writingwall;writingwall;12;Scrambled4.png;53;53;M5_S1_I0;5;1;0;2;2120
1;4;screwing;screwing;8;Garage2.png;42;77;M2_S2_I1;2;2;1;0;2833
2;2;grating;grating;4;Office2.png;32;22;M3_S1_I1;3;1;1;2;2590
2;4;screwing;screwing;8;Office4.png;34;74;M2_S3_I1;2;3;1;0;1653
2;2;grating;grating;4;Bathroom1.png;11;62;M4_S2_I1;4;2;1;0;2625
2;1;washingface;washingface;11;Garage2.png;42;50;M2_S3_I0;2;3;0;0;3079
2;4;hammering;hammering;5;Office5.png;35;28;M5_S3_I0;5;3;0;0;2635
2;2;openingbottle;openingbottle;6;Office5.png;35;15;M4_S3_I1;4;3;1;0;2960
1;1;washingface;washingface;11;Bathroom3.png;13;66;M4_S1_I0;4;1;0;0;3352
1;2;grating;grating;4;Kitchen3.png;23;55;M5_S3_I0;5;3;0;2;1663
3;1;washingface;washingface;11;Scrambled3.png;52;54;M5_S1_I1;5;1;1;0;2348
1;2;openingbottle;openingbottle;6;Kitchen4.png;24;71;M2_S1_I1;2;1;1;2;2084
2;4;painting;painting;7;Office1.png;31;36;M5_S1_I0;5;1;0;0;2875
3;1;shampooing;shampooing;9;Scrambled3.png;52;70;M5_S3_I0;5;3;0;0;2241
2;4;screwing;screwing;8;Office3.png;33;46;M2_S1_I1;2;1;1;2;2736
3;2;grating;grating;4;Scrambled5.png;54;40;M2_S1_I1;2;1;1;2;3612
1;1;brushingteeth;brushingteeth;1;Bathroom1.png;11;60;M4_S3_I1;4;3;1;2;1636
3;1;washingface;washingface;11;Scrambled6.png;55;58;M4_S2_I0;4;2;0;2;1738
3;2;chopping;chopping;2;Scrambled1.png;50;65;M2_S2_I1;2;2;1;2;4397
3;4;screwing;screwing;8;Scrambled2.png;51;45;M2_S2_I0;2;2;0;2;1397
2;1;shampooing;shampooing;9;Kitchen5.png;25;14;M4_S1_I1;4;1;1;0;1686
2;2;openingbottle;openingbottle;6;Bathroom4.png;14;69;M4_S2_I1;4;2;1;1;1114
1;2;openingbottle;openingbottle;6;Kitchen1.png;21;79;M2_S2_I1;2;2;1;1;2470
2;2;openingbottle;openingbottle;6;Garage3.png;43;42;M5_S2_I0;5;2;0;2;1820
1;2;openingbottle;openingbottle;6;Kitchen2.png;22;68;M3_S2_I0;3;2;0;2;1564
1;1;washingface;washingface;11;Bathroom2.png;12;43;M2_S3_I1;2;3;1;2;4599
2;4;screwing;screwing;8;Kitchen2.png;22;30;M4_S1_I0;4;1;0;0;2712
1;1;shampooing;shampooing;9;Bathroom2.png;12;61;M2_S2_I0;2;2;0;2;1556
1;1;shampooing;shampooing;9;Bathroom5.png;15;33;M4_S2_I0;4;2;0;2;1982
1;2;chopping;chopping;2;Kitchen2.png;22;44;M5_S3_I0;5;3;0;0;1591
2;3;writingwall;writingwall;12;Kitchen1.png;21;39;M2_S1_I1;2;1;1;2;1104
1;1;shampooing;shampooing;9;Bathroom4.png;14;56;M3_S2_I1;3;2;1;0;2413
3;2;openingbottle;openingbottle;6;Scrambled5.png;54;122;M4_S2_I0;4;2;0;1;2116
2;3;erasing;erasing;3;Kitchen2.png;22;89;M2_S2_I0;2;2;0;2;4013
3;4;painting;painting;7;Scrambled1.png;50;131;M2_S3_I1;2;3;1;2;1077
1;2;grating;grating;4;Kitchen1.png;21;145;M5_S1_I0;5;1;0;1;865
1;2;grating;grating;4;Kitchen2.png;22;104;M4_S1_I1;4;1;1;2;1735
3;4;hammering;hammering;5;Scrambled2.png;51;141;M5_S2_I0;5;2;0;0;4169
3;1;brushingteeth;brushingteeth;1;Scrambled5.png;54;124;M2_S3_I0;2;3;0;1;3116
2;2;openingbottle;openingbottle;6;Garage3.png;43;99;M4_S1_I1;4;1;1;2;1495
1;2;grating;grating;4;Kitchen4.png;24;125;M3_S2_I1;3;2;1;2;2036
3;1;brushingteeth;brushingteeth;1;Scrambled10.png;59;90;M2_S1_I1;2;1;1;2;3276
3;4;painting;painting;7;Scrambled10.png;59;93;M2_S1_I1;2;1;1;2;2658
2;3;erasing;erasing;3;Kitchen4.png;24;127;M3_S3_I0;3;3;0;2;1566
1;1;washingface;washingface;11;Bathroom3.png;13;114;M4_S2_I1;4;2;1;2;3854
1;3;erasing;erasing;3;Office5.png;35;107;M2_S3_I0;2;3;0;0;1617
3;3;erasing;erasing;3;Scrambled3.png;52;100;M3_S1_I0;3;1;0;2;2512
2;4;hammering;hammering;5;Kitchen4.png;24;86;M2_S2_I1;2;2;1;2;2282
3;4;screwing;screwing;8;Scrambled9.png;58;156;M3_S3_I1;3;3;1;2;4014
3;3;writingwall;writingwall;12;Scrambled4.png;53;150;M3_S2_I0;3;2;0;2;2844
1;3;sharpeningpencil;sharpeningpencil;10;Office5.png;35;139;M4_S3_I1;4;3;1;0;327
3;3;sharpeningpencil;sharpeningpencil;10;Scrambled10.png;59;115;M5_S1_I1;5;1;1;0;2086
1;4;screwing;screwing;8;Garage2.png;42;147;M4_S1_I1;4;1;1;2;2785
2;3;sharpeningpencil;sharpeningpencil;10;Bathroom4.png;14;134;M2_S1_I1;2;1;1;2;2079
2;4;screwing;screwing;8;Office4.png;34;140;M4_S3_I0;4;3;0;2;4866
2;4;painting;painting;7;Kitchen4.png;24;148;M5_S1_I1;5;1;1;2;1960
3;2;openingbottle;openingbottle;6;Scrambled5.png;54;113;M2_S3_I0;2;3;0;2;2067
3;3;sharpeningpencil;sharpeningpencil;10;Scrambled1.png;50;103;M3_S1_I0;3;1;0;2;1750
2;1;shampooing;shampooing;9;Garage3.png;43;109;M2_S3_I1;2;3;1;2;1031
1;1;washingface;washingface;11;Bathroom2.png;12;154;M2_S1_I0;2;1;0;1;1286
2;3;sharpeningpencil;sharpeningpencil;10;Kitchen2.png;22;106;M5_S2_I1;5;2;1;1;3372
2;2;chopping;chopping;2;Garage5.png;45;128;M4_S1_I1;4;1;1;1;1133
2;4;screwing;screwing;8;Kitchen2.png;22;123;M3_S2_I0;3;2;0;2;3402
2;2;grating;grating;4;Office3.png;33;120;M3_S1_I0;3;1;0;2;2409
2;1;brushingteeth;brushingteeth;1;Kitchen4.png;24;117;M3_S3_I1;3;3;1;2;1761
3;3;erasing;erasing;3;Scrambled6.png;55;92;M3_S1_I1;3;1;1;2;4388
2;3;writingwall;writingwall;12;Garage3.png;43;91;M3_S1_I0;3;1;0;2;1052
3;3;writingwall;writingwall;12;Scrambled8.png;57;129;M2_S2_I1;2;2;1;2;1242
2;3;erasing;erasing;3;Kitchen5.png;25;116;M5_S1_I0;5;1;0;2;1216
1;1;shampooing;shampooing;9;Bathroom4.png;14;151;M4_S1_I0;4;1;0;0;3978
3;4;painting;painting;7;Scrambled1.png;50;95;M5_S2_I0;5;2;0;2;1987
1;4;painting;painting;7;Garage3.png;43;144;M3_S1_I0;3;1;0;0;1979
2;1;brushingteeth;brushingteeth;1;Garage2.png;42;142;M4_S1_I0;4;1;0;0;2661
3;3;erasing;erasing;3;Scrambled5.png;54;119;M4_S2_I0;4;2;0;2;3796
1;1;brushingteeth;brushingteeth;1;Bathroom5.png;15;132;M4_S3_I0;4;3;0;1;1989
2;4;screwing;screwing;8;Kitchen4.png;24;102;M5_S1_I1;5;1;1;2;1085
2;4;hammering;hammering;5;Office2.png;32;135;M4_S2_I0;4;2;0;1;4988
3;1;brushingteeth;brushingteeth;1;Scrambled1.png;50;146;M5_S3_I1;5;3;1;2;1757
3;2;openingbottle;openingbottle;6;Scrambled9.png;58;96;M5_S3_I1;5;3;1;1;1743
2;1;brushingteeth;brushingteeth;1;Garage2.png;42;136;M5_S2_I0;5;2;0;0;1393
3;3;sharpeningpencil;sharpeningpencil;10;Scrambled4.png;53;98;M2_S2_I1;2;2;1;0;1074
3;1;shampooing;shampooing;9;Scrambled1.png;50;111;M2_S1_I1;2;1;1;1;1871
3;4;hammering;hammering;5;Scrambled8.png;57;138;M4_S1_I1;4;1;1;0;2942
1;4;painting;painting;7;Garage1.png;41;152;M5_S2_I1;5;2;1;0;2305
1;1;brushingteeth;brushingteeth;1;Bathroom5.png;15;155;M2_S2_I0;2;2;0;2;2588
2;1;shampooing;shampooing;9;Kitchen2.png;22;126;M4_S2_I1;4;2;1;1;1771
2;2;chopping;chopping;2;Bathroom2.png;12;112;M4_S1_I0;4;1;0;0;1516
3;2;grating;grating;4;Scrambled5.png;54;85;M4_S1_I0;4;1;0;2;1388
1;1;brushingteeth;brushingteeth;1;Bathroom2.png;12;153;M2_S2_I1;2;2;1;0;1731
1;3;writingwall;writingwall;12;Office5.png;35;105;M2_S3_I1;2;3;1;2;1372
1;3;sharpeningpencil;sharpeningpencil;10;Office1.png;31;137;M3_S3_I1;3;3;1;1;2723
3;1;brushingteeth;brushingteeth;1;Scrambled5.png;54;87;M2_S1_I0;2;1;0;2;3173
3;4;screwing;screwing;8;Scrambled3.png;52;118;M4_S2_I1;4;2;1;0;4342
1;2;openingbottle;openingbottle;6;Kitchen5.png;25;94;M5_S3_I0;5;3;0;2;1206
3;4;screwing;screwing;8;Scrambled8.png;57;101;M4_S3_I1;4;3;1;0;1284
3;3;writingwall;writingwall;12;Scrambled6.png;55;97;M4_S2_I1;4;2;1;0;1180
2;3;sharpeningpencil;sharpeningpencil;10;Kitchen5.png;25;130;M4_S2_I0;4;2;0;2;1530
3;4;hammering;hammering;5;Scrambled7.png;56;121;M2_S3_I0;2;3;0;2;3712
1;1;washingface;washingface;11;Bathroom3.png;13;149;M2_S2_I1;2;2;1;2;2579
1;3;erasing;erasing;3;Office2.png;32;88;M3_S2_I0;3;2;0;0;1173
1;3;sharpeningpencil;sharpeningpencil;10;Office1.png;31;143;M4_S3_I0;4;3;0;2;1998
1;2;chopping;chopping;2;Kitchen2.png;22;110;M3_S3_I1;3;3;1;1;2999
2;4;screwing;screwing;8;Bathroom2.png;12;108;M3_S1_I1;3;1;1;0;3753
3;3;erasing;erasing;3;Scrambled7.png;56;133;M2_S2_I1;2;2;1;2;4012
1;4;hammering;hammering;5;Garage2.png;42;223;M5_S3_I1;5;3;1;2;1988
3;3;writingwall;writingwall;12;Scrambled4.png;53;205;M2_S2_I0;2;2;0;2;1288
3;2;chopping;chopping;2;Scrambled3.png;52;213;M4_S3_I0;4;3;0;0;2750
2;1;shampooing;shampooing;9;Office5.png;35;204;M3_S1_I1;3;1;1;0;1655
1;1;brushingteeth;brushingteeth;1;Bathroom1.png;11;228;M4_S1_I1;4;1;1;2;1470
1;1;shampooing;shampooing;9;Bathroom3.png;13;224;M3_S1_I0;3;1;0;0;2475
2;4;hammering;hammering;5;Kitchen4.png;24;179;M2_S1_I1;2;1;1;0;3137
1;1;shampooing;shampooing;9;Bathroom1.png;11;199;M5_S3_I1;5;3;1;2;1516
2;2;chopping;chopping;2;Garage2.png;42;162;M4_S2_I1;4;2;1;0;2487
2;3;erasing;erasing;3;Kitchen1.png;21;206;M4_S1_I0;4;1;0;2;1596
2;1;washingface;washingface;11;Kitchen3.png;23;198;M4_S3_I0;4;3;0;2;1605
3;1;washingface;washingface;11;Scrambled7.png;56;189;M2_S2_I0;2;2;0;2;2700
1;1;washingface;washingface;11;Bathroom5.png;15;185;M3_S3_I0;3;3;0;2;1193
3;2;grating;grating;4;Scrambled9.png;58;175;M3_S3_I0;3;3;0;2;2849
2;4;hammering;hammering;5;Office3.png;33;181;M4_S3_I1;4;3;1;2;1720
2;3;writingwall;writingwall;12;Kitchen4.png;24;158;M5_S1_I1;5;1;1;2;955
2;1;washingface;washingface;11;Garage3.png;43;194;M5_S3_I1;5;3;1;2;1917
2;1;brushingteeth;brushingteeth;1;Garage3.png;43;184;M3_S3_I0;3;3;0;0;1512
1;4;hammering;hammering;5;Garage2.png;42;180;M2_S2_I0;2;2;0;1;1187
1;3;erasing;erasing;3;Office2.png;32;187;M2_S1_I1;2;1;1;0;955
2;1;washingface;washingface;11;Kitchen1.png;21;170;M5_S2_I0;5;2;0;0;4160
3;2;chopping;chopping;2;Scrambled8.png;57;214;M4_S2_I0;4;2;0;2;2627
2;3;writingwall;writingwall;12;Kitchen2.png;22;173;M3_S3_I1;3;3;1;0;1217
2;4;hammering;hammering;5;Kitchen2.png;22;226;M3_S1_I0;3;1;0;1;4170
3;3;sharpeningpencil;sharpeningpencil;10;Scrambled9.png;58;161;M4_S1_I1;4;1;1;1;2700
3;4;painting;painting;7;Scrambled9.png;58;163;M5_S3_I0;5;3;0;2;1384
1;2;openingbottle;openingbottle;6;Kitchen1.png;21;227;M3_S1_I0;3;1;0;2;3892
1;3;sharpeningpencil;sharpeningpencil;10;Office4.png;34;201;M3_S3_I0;3;3;0;2;1815
2;3;writingwall;writingwall;12;Garage3.png;43;203;M5_S3_I0;5;3;0;2;1452
3;1;washingface;washingface;11;Scrambled5.png;54;212;M3_S1_I0;3;1;0;0;1215
3;2;openingbottle;openingbottle;6;Scrambled6.png;55;177;M4_S1_I0;4;1;0;2;1500
2;2;chopping;chopping;2;Garage2.png;42;171;M3_S2_I0;3;2;0;0;2911
2;1;shampooing;shampooing;9;Office2.png;32;183;M5_S2_I0;5;2;0;0;1897
1;4;screwing;screwing;8;Garage4.png;44;174;M2_S1_I0;2;1;0;2;1499
3;1;washingface;washingface;11;Scrambled7.png;56;192;M5_S2_I1;5;2;1;0;1597
2;2;openingbottle;openingbottle;6;Office5.png;35;188;M2_S3_I1;2;3;1;2;3501
1;3;erasing;erasing;3;Office3.png;33;167;M5_S1_I1;5;1;1;2;4577
2;1;brushingteeth;brushingteeth;1;Garage1.png;41;221;M3_S2_I1;3;2;1;0;1761
3;3;sharpeningpencil;sharpeningpencil;10;Scrambled1.png;50;164;M5_S3_I1;5;3;1;0;1459
1;3;sharpeningpencil;sharpeningpencil;10;Office2.png;32;196;M2_S1_I0;2;1;0;2;3138
2;1;shampooing;shampooing;9;Garage3.png;43;207;M2_S3_I0;2;3;0;2;1356
2;3;writingwall;writingwall;12;Garage4.png;44;168;M4_S1_I1;4;1;1;0;1438
2;2;grating;grating;4;Office1.png;31;182;M4_S3_I1;4;3;1;2;1788
1;2;grating;grating;4;Kitchen3.png;23;209;M2_S1_I0;2;1;0;2;2796
1;1;brushingteeth;brushingteeth;1;Bathroom3.png;13;195;M4_S2_I1;4;2;1;0;2886
1;2;chopping;chopping;2;Kitchen2.png;22;165;M3_S3_I0;3;3;0;0;1339
1;3;writingwall;writingwall;12;Office3.png;33;160;M4_S2_I0;4;2;0;2;2398
3;4;screwing;screwing;8;Scrambled5.png;54;210;M5_S2_I1;5;2;1;2;1030
1;2;chopping;chopping;2;Kitchen3.png;23;208;M2_S1_I0;2;1;0;0;1654
1;2;chopping;chopping;2;Kitchen4.png;24;217;M2_S3_I1;2;3;1;2;2349
1;3;writingwall;writingwall;12;Office2.png;32;178;M5_S2_I1;5;2;1;0;2296
1;4;screwing;screwing;8;Garage4.png;44;216;M4_S2_I0;4;2;0;0;3078
1;3;sharpeningpencil;sharpeningpencil;10;Office1.png;31;193;M5_S2_I0;5;2;0;2;1683
1;4;hammering;hammering;5;Garage3.png;43;202;M3_S2_I1;3;2;1;2;1464
1;2;grating;grating;4;Kitchen4.png;24;215;M4_S3_I0;4;3;0;2;4985
2;3;erasing;erasing;3;Garage3.png;43;190;M3_S2_I1;3;2;1;1;5020
2;2;openingbottle;openingbottle;6;Bathroom5.png;15;157;M5_S1_I1;5;1;1;1;1692
2;2;grating;grating;4;Office3.png;33;197;M5_S2_I0;5;2;0;0;1809
3;1;shampooing;shampooing;9;Scrambled3.png;52;211;M2_S2_I1;2;2;1;2;1743
2;2;chopping;chopping;2;Bathroom4.png;14;186;M5_S2_I0;5;2;0;1;1489
2;4;painting;painting;7;Office2.png;32;200;M4_S1_I1;4;1;1;2;1485
1;4;painting;painting;7;Garage3.png;43;166;M4_S1_I0;4;1;0;2;1352
2;3;sharpeningpencil;sharpeningpencil;10;Kitchen5.png;25;169;M5_S3_I0;5;3;0;2;2475
1;1;washingface;washingface;11;Bathroom2.png;12;159;M5_S1_I0;5;1;0;0;1968
1;1;shampooing;shampooing;9;Bathroom5.png;15;218;M2_S1_I0;2;1;0;1;1977
3;4;painting;painting;7;Scrambled7.png;56;219;M2_S2_I0;2;2;0;2;1218
3;2;chopping;chopping;2;Scrambled5.png;54;220;M3_S2_I1;3;2;1;2;2778
1;2;chopping;chopping;2;Kitchen5.png;25;172;M2_S2_I0;2;2;0;1;4373
2;4;hammering;hammering;5;Office4.png;34;225;M5_S1_I0;5;1;0;2;4976
3;2;openingbottle;openingbottle;6;Scrambled4.png;53;222;M5_S1_I0;5;1;0;0;2913
1;3;erasing;erasing;3;Office3.png;33;176;M5_S2_I0;5;2;0;2;1915
1;1;brushingteeth;brushingteeth;1;Bathroom2.png;12;191;M5_S2_I1;5;2;1;0;1885
2;2;chopping;chopping;2;Garage5.png;45;288;M3_S1_I0;3;1;0;0;1743
3;1;washingface;washingface;11;Scrambled1.png;50;233;M3_S2_I1;3;2;1;2;1387
3;1;brushingteeth;brushingteeth;1;Scrambled1.png;50;280;M3_S2_I0;3;2;0;0;353
2;3;sharpeningpencil;sharpeningpencil;10;Garage5.png;45;229;M2_S2_I0;2;2;0;1;1313
3;1;shampooing;shampooing;9;Scrambled3.png;52;250;M5_S2_I1;5;2;1;2;1163
3;3;writingwall;writingwall;12;Scrambled1.png;50;260;M3_S1_I1;3;1;1;2;682
3;2;openingbottle;openingbottle;6;Scrambled9.png;58;296;M5_S2_I1;5;2;1;1;1101
1;3;erasing;erasing;3;Office4.png;34;289;M4_S1_I1;4;1;1;0;1310
1;4;screwing;screwing;8;Garage4.png;44;251;M3_S1_I0;3;1;0;2;2297
2;2;grating;grating;4;Bathroom5.png;15;287;M2_S3_I0;2;3;0;1;1526
3;2;grating;grating;4;Scrambled1.png;50;239;M3_S2_I0;3;2;0;1;815
3;1;shampooing;shampooing;9;Scrambled9.png;58;265;M3_S2_I0;3;2;0;2;1639
1;4;screwing;screwing;8;Garage4.png;44;253;M5_S2_I0;5;2;0;2;1710
3;3;sharpeningpencil;sharpeningpencil;10;Scrambled8.png;57;279;M3_S1_I1;3;1;1;2;2050
3;2;grating;grating;4;Scrambled7.png;56;240;M5_S3_I1;5;3;1;2;1192
1;3;writingwall;writingwall;12;Office2.png;32;292;M3_S2_I1;3;2;1;2;880
3;3;erasing;erasing;3;Scrambled2.png;51;232;M2_S3_I1;2;3;1;0;1268
3;1;brushingteeth;brushingteeth;1;Scrambled4.png;53;263;M5_S3_I0;5;3;0;2;2683
3;2;openingbottle;openingbottle;6;Scrambled9.png;58;298;M3_S2_I1;3;2;1;1;1640
1;4;screwing;screwing;8;Garage2.png;42;244;M5_S1_I0;5;1;0;2;1694
2;1;shampooing;shampooing;9;Office1.png;31;236;M3_S3_I0;3;3;0;0;1394
3;1;washingface;washingface;11;Scrambled5.png;54;257;M3_S3_I1;3;3;1;2;1313
3;4;screwing;screwing;8;Scrambled3.png;52;297;M3_S2_I1;3;2;1;2;1749
2;1;brushingteeth;brushingteeth;1;Garage1.png;41;252;M5_S1_I1;5;1;1;1;1335
2;4;painting;painting;7;Kitchen5.png;25;231;M4_S2_I1;4;2;1;2;1594
1;1;brushingteeth;brushingteeth;1;Bathroom5.png;15;245;M5_S1_I0;5;1;0;0;1539
2;3;sharpeningpencil;sharpeningpencil;10;Bathroom4.png;14;255;M2_S3_I0;2;3;0;2;1389
2;3;erasing;erasing;3;Garage5.png;45;276;M5_S2_I1;5;2;1;0;3199
3;4;hammering;hammering;5;Scrambled3.png;52;254;M3_S2_I0;3;2;0;1;2312
3;3;erasing;erasing;3;Scrambled7.png;56;295;M2_S1_I0;2;1;0;0;451
2;2;openingbottle;openingbottle;6;Office4.png;34;262;M3_S1_I1;3;1;1;1;1481
2;3;erasing;erasing;3;Garage5.png;45;294;M3_S3_I1;3;3;1;0;3127
2;1;washingface;washingface;11;Office3.png;33;282;M4_S3_I1;4;3;1;0;609
2;1;washingface;washingface;11;Garage5.png;45;293;M5_S3_I0;5;3;0;0;1697
3;3;writingwall;writingwall;12;Scrambled10.png;59;267;M3_S3_I0;3;3;0;2;645
1;2;grating;grating;4;Kitchen4.png;24;266;M2_S2_I1;2;2;1;2;1027
1;4;hammering;hammering;5;Garage3.png;43;274;M4_S3_I0;4;3;0;0;3283
3;1;shampooing;shampooing;9;Scrambled9.png;58;247;M4_S3_I1;4;3;1;1;1176
2;2;chopping;chopping;2;Garage2.png;42;277;M5_S1_I0;5;1;0;0;2161
1;3;writingwall;writingwall;12;Office1.png;31;273;M5_S2_I0;5;2;0;2;947
1;4;hammering;hammering;5;Garage4.png;44;300;M3_S1_I1;3;1;1;2;949
3;2;chopping;chopping;2;Scrambled4.png;53;269;M5_S1_I1;5;1;1;1;3433
1;4;screwing;screwing;8;Garage1.png;41;291;M5_S3_I0;5;3;0;2;1663
2;4;painting;painting;7;Kitchen4.png;24;230;M3_S2_I1;3;2;1;2;1147
3;4;screwing;screwing;8;Scrambled10.png;59;243;M5_S3_I1;5;3;1;2;1035
3;4;hammering;hammering;5;Scrambled10.png;59;275;M2_S1_I0;2;1;0;0;1008
3;1;brushingteeth;brushingteeth;1;Scrambled7.png;56;281;M2_S3_I1;2;3;1;0;853
3;4;hammering;hammering;5;Scrambled8.png;57;241;M5_S1_I1;5;1;1;0;2130
1;4;painting;painting;7;Garage3.png;43;242;M5_S3_I1;5;3;1;2;1515
3;2;grating;grating;4;Scrambled9.png;58;286;M2_S3_I1;2;3;1;0;3615
1;2;grating;grating;4;Kitchen2.png;22;234;M5_S2_I1;5;2;1;2;797
2;4;hammering;hammering;5;Bathroom5.png;15;238;M3_S3_I0;3;3;0;0;3483
3;2;chopping;chopping;2;Scrambled5.png;54;272;M2_S3_I0;2;3;0;0;1518
3;4;screwing;screwing;8;Scrambled4.png;53;283;M3_S3_I0;3;3;0;2;1079
1;2;openingbottle;openingbottle;6;Kitchen2.png;22;235;M3_S3_I0;3;3;0;2;916
1;4;painting;painting;7;Garage3.png;43;271;M4_S3_I1;4;3;1;2;984
1;3;writingwall;writingwall;12;Office4.png;34;259;M4_S3_I0;4;3;0;2;712
1;4;hammering;hammering;5;Garage2.png;42;258;M4_S2_I1;4;2;1;0;1267
3;4;painting;painting;7;Scrambled3.png;52;285;M2_S1_I0;2;1;0;2;1046
3;2;grating;grating;4;Scrambled4.png;53;268;M5_S1_I1;5;1;1;0;1012
1;3;erasing;erasing;3;Office2.png;32;261;M5_S3_I0;5;3;0;2;1443
1;2;openingbottle;openingbottle;6;Kitchen3.png;23;246;M3_S3_I1;3;3;1;0;3667
3;3;erasing;erasing;3;Scrambled4.png;53;237;M4_S3_I1;4;3;1;0;951
1;3;erasing;erasing;3;Office3.png;33;270;M4_S2_I1;4;2;1;0;1240
1;3;writingwall;writingwall;12;Office1.png;31;299;M4_S1_I0;4;1;0;2;959
2;3;writingwall;writingwall;12;Kitchen2.png;22;284;M5_S3_I1;5;3;1;2;544
1;3;sharpeningpencil;sharpeningpencil;10;Office4.png;34;249;M3_S2_I1;3;2;1;0;546
2;2;grating;grating;4;Office5.png;35;248;M3_S3_I1;3;3;1;2;2613
3;3;sharpeningpencil;sharpeningpencil;10;Scrambled5.png;54;256;M2_S3_I1;2;3;1;2;1445
2;1;washingface;washingface;11;Kitchen5.png;25;264;M2_S1_I1;2;1;1;2;2356
2;4;painting;painting;7;Bathroom1.png;11;278;M2_S2_I1;2;2;1;2;2125
1;2;openingbottle;openingbottle;6;Kitchen3.png;23;290;M4_S3_I0;4;3;0;2;1376
