<?xml version="1.0"?>
<!DOCTYPE svg PUBLIC '-//W3C//DTD SVG 1.0//EN'
          'http://www.w3.org/TR/2001/REC-SVG-20010904/DTD/svg10.dtd'>
<svg xmlns:xlink="http://www.w3.org/1999/xlink" style="fill-opacity:1; color-rendering:auto; color-interpolation:auto; text-rendering:auto; stroke:black; stroke-linecap:square; stroke-miterlimit:10; shape-rendering:auto; stroke-opacity:1; fill:black; stroke-dasharray:none; font-weight:normal; stroke-width:1; font-family:'Dialog'; font-style:normal; stroke-linejoin:miter; font-size:12px; stroke-dashoffset:0; image-rendering:auto;" width="560" height="420" xmlns="http://www.w3.org/2000/svg"
><!--Generated by the Batik Graphics2D SVG Generator--><defs id="genericDefs"
  /><g
  ><defs id="defs1"
    ><clipPath clipPathUnits="userSpaceOnUse" id="clipPath1"
      ><path d="M0 0 L560 0 L560 420 L0 420 L0 0 Z"
      /></clipPath
      ><clipPath clipPathUnits="userSpaceOnUse" id="clipPath2"
      ><path d="M1 0 L1 396 L560 396 L560 0 Z"
      /></clipPath
      ><clipPath clipPathUnits="userSpaceOnUse" id="clipPath3"
      ><path d="M0.5 -0.5 L0.5 395.5 L559.5 395.5 L559.5 -0.5 Z"
      /></clipPath
      ><clipPath clipPathUnits="userSpaceOnUse" id="clipPath4"
      ><path d="M0 0 L0 394 L15 394 L15 0 Z"
      /></clipPath
      ><clipPath clipPathUnits="userSpaceOnUse" id="clipPath5"
      ><path d="M-0.5 -15.5 L-0.5 378.5 L14.5 378.5 L14.5 -15.5 Z"
      /></clipPath
      ><clipPath clipPathUnits="userSpaceOnUse" id="clipPath6"
      ><path d="M0 0 L0 15 L15 15 L15 0 Z"
      /></clipPath
      ><clipPath clipPathUnits="userSpaceOnUse" id="clipPath7"
      ><path d="M0 1 L0 16 L15 16 L15 1 Z"
      /></clipPath
      ><clipPath clipPathUnits="userSpaceOnUse" id="clipPath8"
      ><path d="M-0.5 0.5 L-0.5 15.5 L14.5 15.5 L14.5 0.5 Z"
      /></clipPath
      ><clipPath clipPathUnits="userSpaceOnUse" id="clipPath9"
      ><path d="M0 0 L0 28 L14 28 L14 0 Z"
      /></clipPath
      ><clipPath clipPathUnits="userSpaceOnUse" id="clipPath10"
      ><path d="M-0.5 -0.5 L-0.5 14.5 L14.5 14.5 L14.5 -0.5 Z"
      /></clipPath
      ><clipPath clipPathUnits="userSpaceOnUse" id="clipPath11"
      ><path d="M0 0 L0 26 L14 26 L14 0 Z"
      /></clipPath
      ><clipPath clipPathUnits="userSpaceOnUse" id="clipPath12"
      ><path d="M0 0 L0 394 L542 394 L542 0 Z"
      /></clipPath
      ><clipPath clipPathUnits="userSpaceOnUse" id="clipPath13"
      ><path d="M0 0 L0 16 L542 16 L542 0 Z"
      /></clipPath
      ><clipPath clipPathUnits="userSpaceOnUse" id="clipPath14"
      ><path d="M0 16 L0 32 L542 32 L542 16 Z"
      /></clipPath
      ><clipPath clipPathUnits="userSpaceOnUse" id="clipPath15"
      ><path d="M0 32 L0 48 L542 48 L542 32 Z"
      /></clipPath
      ><clipPath clipPathUnits="userSpaceOnUse" id="clipPath16"
      ><path d="M0 48 L0 64 L542 64 L542 48 Z"
      /></clipPath
      ><clipPath clipPathUnits="userSpaceOnUse" id="clipPath17"
      ><path d="M0 64 L0 80 L542 80 L542 64 Z"
      /></clipPath
      ><clipPath clipPathUnits="userSpaceOnUse" id="clipPath18"
      ><path d="M0 80 L0 96 L542 96 L542 80 Z"
      /></clipPath
      ><clipPath clipPathUnits="userSpaceOnUse" id="clipPath19"
      ><path d="M1 0 L1 23 L560 23 L560 0 Z"
      /></clipPath
      ><font horiz-adv-x="60.20508" id="font1"
      ><font-face ascent="92.822266" descent="23.583984" units-per-em="100" style="font-style:normal; font-family:monospace; font-weight:normal;"
        /><missing-glyph horiz-adv-x="60.20508" d="M5.0781 -17.6719 L5.0781 70.5156 L55.0781 70.5156 L55.0781 -17.6719 L5.0781 -17.6719 ZM10.6875 -12.1094 L49.5156 -12.1094 L49.5156 64.8906 L10.6875 64.8906 L10.6875 -12.1094 Z"
        /><glyph unicode="&gt;" horiz-adv-x="60.20508" d="M4.2969 46.9219 L4.2969 55.8125 L55.9062 35.4062 L55.9062 27.2969 L4.2969 6.8906 L4.2969 15.8281 L45.7969 31.2969 L4.2969 46.9219 Z"
        /><glyph unicode="b" horiz-adv-x="60.20508" d="M44.8281 27.2969 Q44.8281 37.75 41.5078 43.0703 Q38.1875 48.3906 31.6875 48.3906 Q25.1406 48.3906 21.7734 43.0469 Q18.4062 37.7031 18.4062 27.2969 Q18.4062 16.9375 21.7734 11.5703 Q25.1406 6.2031 31.6875 6.2031 Q38.1875 6.2031 41.5078 11.5234 Q44.8281 16.8438 44.8281 27.2969 ZM18.4062 47.7031 Q20.5625 51.7031 24.3438 53.8516 Q28.125 56 33.1094 56 Q42.9688 56 48.6328 48.4141 Q54.2969 40.8281 54.2969 27.4844 Q54.2969 13.9688 48.6094 6.2734 Q42.9219 -1.4219 33.0156 -1.4219 Q28.125 -1.4219 24.3906 0.7031 Q20.6562 2.8281 18.4062 6.8906 L18.4062 0 L9.4219 0 L9.4219 75.9844 L18.4062 75.9844 L18.4062 47.7031 Z"
        /><glyph unicode="P" horiz-adv-x="60.20508" d="M19.4844 64.7969 L19.4844 37.4062 L30.9062 37.4062 Q37.75 37.4062 41.5781 41.0156 Q45.4062 44.625 45.4062 51.125 Q45.4062 57.625 41.6016 61.2109 Q37.7969 64.7969 30.9062 64.7969 L19.4844 64.7969 ZM9.625 72.9062 L30.9062 72.9062 Q43.1094 72.9062 49.4141 67.3594 Q55.7188 61.8125 55.7188 51.125 Q55.7188 40.3281 49.4453 34.8125 Q43.1719 29.2969 30.9062 29.2969 L19.4844 29.2969 L19.4844 0 L9.625 0 L9.625 72.9062 Z"
        /><glyph unicode="F" horiz-adv-x="60.20508" d="M11.375 72.9062 L54.2969 72.9062 L54.2969 64.5938 L21.2969 64.5938 L21.2969 43.1094 L51.2188 43.1094 L51.2188 34.8125 L21.2969 34.8125 L21.2969 0 L11.375 0 L11.375 72.9062 Z"
        /><glyph unicode="M" horiz-adv-x="60.20508" d="M4.2031 72.9062 L17.3906 72.9062 L29.9844 35.7969 L42.6719 72.9062 L55.9062 72.9062 L55.9062 0 L46.7812 0 L46.7812 64.4062 L33.7969 25.9844 L26.3125 25.9844 L13.2812 64.4062 L13.2812 0 L4.2031 0 L4.2031 72.9062 Z"
        /><glyph unicode="f" horiz-adv-x="60.20508" d="M51.9062 75.9844 L51.9062 68.5 L41.7031 68.5 Q36.8594 68.5 34.9844 66.5234 Q33.1094 64.5469 33.1094 59.5156 L33.1094 54.6875 L51.9062 54.6875 L51.9062 47.7031 L33.1094 47.7031 L33.1094 0 L24.125 0 L24.125 47.7031 L9.5156 47.7031 L9.5156 54.6875 L24.125 54.6875 L24.125 58.5 Q24.125 67.4844 28.25 71.7344 Q32.375 75.9844 41.1094 75.9844 L51.9062 75.9844 Z"
        /><glyph unicode="d" horiz-adv-x="60.20508" d="M41.8906 47.7031 L41.8906 75.9844 L50.875 75.9844 L50.875 0 L41.8906 0 L41.8906 6.8906 Q39.6562 2.8281 35.9141 0.7031 Q32.1719 -1.4219 27.2969 -1.4219 Q17.3906 -1.4219 11.6953 6.2734 Q6 13.9688 6 27.4844 Q6 40.8281 11.7188 48.4141 Q17.4375 56 27.2969 56 Q32.2344 56 35.9922 53.8828 Q39.75 51.7656 41.8906 47.7031 ZM15.4844 27.2969 Q15.4844 16.8438 18.8047 11.5234 Q22.125 6.2031 28.6094 6.2031 Q35.1094 6.2031 38.5 11.5703 Q41.8906 16.9375 41.8906 27.2969 Q41.8906 37.7031 38.5 43.0469 Q35.1094 48.3906 28.6094 48.3906 Q22.125 48.3906 18.8047 43.0703 Q15.4844 37.75 15.4844 27.2969 Z"
        /><glyph unicode=" " horiz-adv-x="60.20508" d=""
        /><glyph unicode="e" horiz-adv-x="60.20508" d="M54.2969 29.5938 L54.2969 25.2031 L15.375 25.2031 L15.375 24.9062 Q15.375 15.9688 20.0391 11.0859 Q24.7031 6.2031 33.2031 6.2031 Q37.5 6.2031 42.1875 7.5703 Q46.875 8.9375 52.2031 11.7188 L52.2031 2.7812 Q47.0781 0.6875 42.3125 -0.3672 Q37.5469 -1.4219 33.1094 -1.4219 Q20.3594 -1.4219 13.1797 6.2266 Q6 13.875 6 27.2969 Q6 40.375 13.0312 48.1875 Q20.0625 56 31.7812 56 Q42.2344 56 48.2656 48.9219 Q54.2969 41.8438 54.2969 29.5938 ZM45.3125 32.2344 Q45.125 40.1406 41.5781 44.2656 Q38.0312 48.3906 31.3906 48.3906 Q24.9062 48.3906 20.7031 44.0938 Q16.5 39.7969 15.7188 32.1719 L45.3125 32.2344 Z"
        /><glyph unicode="c" horiz-adv-x="60.20508" d="M51.8125 2.7812 Q48.1875 0.6875 44.3594 -0.3672 Q40.5312 -1.4219 36.5312 -1.4219 Q23.8281 -1.4219 16.6719 6.1953 Q9.5156 13.8125 9.5156 27.2969 Q9.5156 40.7656 16.6719 48.3828 Q23.8281 56 36.5312 56 Q40.4844 56 44.2422 54.9766 Q48 53.9531 51.8125 51.8125 L51.8125 42.3906 Q48.25 45.5625 44.6562 46.9766 Q41.0625 48.3906 36.5312 48.3906 Q28.0781 48.3906 23.5391 42.9219 Q19 37.4531 19 27.2969 Q19 17.1875 23.5625 11.6953 Q28.125 6.2031 36.5312 6.2031 Q41.2188 6.2031 44.9297 7.6406 Q48.6406 9.0781 51.8125 12.1094 L51.8125 2.7812 Z"
        /><glyph unicode="r" horiz-adv-x="60.20508" d="M56.3906 43.4062 Q53.5156 45.6562 50.5391 46.6797 Q47.5625 47.7031 44 47.7031 Q35.5938 47.7031 31.1484 42.4297 Q26.7031 37.1562 26.7031 27.2031 L26.7031 0 L17.6719 0 L17.6719 54.6875 L26.7031 54.6875 L26.7031 44 Q28.9531 49.8125 33.6172 52.9062 Q38.2812 56 44.6719 56 Q48 56 50.8828 55.1719 Q53.7656 54.3438 56.3906 52.5938 L56.3906 43.4062 Z"
        /><glyph unicode="u" horiz-adv-x="60.20508" d="M9.5156 20.7031 L9.5156 54.5938 L18.5 54.5938 L18.5 20.7031 Q18.5 13.3281 21.1172 9.8594 Q23.7344 6.3906 29.2031 6.3906 Q35.5469 6.3906 38.9141 10.8594 Q42.2812 15.3281 42.2812 23.6875 L42.2812 54.5938 L51.3125 54.5938 L51.3125 0 L42.2812 0 L42.2812 8.2031 Q39.8906 3.4688 35.7656 1.0234 Q31.6406 -1.4219 26.125 -1.4219 Q17.7188 -1.4219 13.6172 4.0781 Q9.5156 9.5781 9.5156 20.7031 Z"
        /><glyph unicode="o" horiz-adv-x="60.20508" d="M30.0781 48.3906 Q23.25 48.3906 19.7344 43.0703 Q16.2188 37.75 16.2188 27.2969 Q16.2188 16.8906 19.7344 11.5469 Q23.25 6.2031 30.0781 6.2031 Q36.9688 6.2031 40.4844 11.5469 Q44 16.8906 44 27.2969 Q44 37.75 40.4844 43.0703 Q36.9688 48.3906 30.0781 48.3906 ZM30.0781 56 Q41.4531 56 47.4844 48.6328 Q53.5156 41.2656 53.5156 27.2969 Q53.5156 13.2812 47.5078 5.9297 Q41.5 -1.4219 30.0781 -1.4219 Q18.7031 -1.4219 12.6953 5.9297 Q6.6875 13.2812 6.6875 27.2969 Q6.6875 41.2656 12.6953 48.6328 Q18.7031 56 30.0781 56 Z"
        /><glyph unicode="S" horiz-adv-x="60.20508" d="M49.4219 70.4062 L49.4219 60.4062 Q44.9219 63.2812 40.4062 64.75 Q35.8906 66.2188 31.2969 66.2188 Q24.3125 66.2188 20.2656 62.9688 Q16.2188 59.7188 16.2188 54.2031 Q16.2188 49.3594 18.875 46.8203 Q21.5312 44.2812 28.8125 42.5781 L33.9844 41.4062 Q44.2344 39.0156 48.9219 33.8906 Q53.6094 28.7656 53.6094 19.9219 Q53.6094 9.5156 47.1641 4.0469 Q40.7188 -1.4219 28.4219 -1.4219 Q23.2969 -1.4219 18.1172 -0.3203 Q12.9375 0.7812 7.7188 2.9844 L7.7188 13.4844 Q13.3281 9.9062 18.3359 8.25 Q23.3438 6.5938 28.4219 6.5938 Q35.8906 6.5938 40.0391 9.9375 Q44.1875 13.2812 44.1875 19.2812 Q44.1875 24.75 41.3359 27.6328 Q38.4844 30.5156 31.3906 32.0781 L26.125 33.2969 Q15.9688 35.5938 11.375 40.2344 Q6.7812 44.875 6.7812 52.6875 Q6.7812 62.4531 13.3516 68.3359 Q19.9219 74.2188 30.8125 74.2188 Q35.0156 74.2188 39.6484 73.2656 Q44.2812 72.3125 49.4219 70.4062 Z"
        /><glyph unicode="-" horiz-adv-x="60.20508" d="M17.3906 31.3906 L42.8281 31.3906 L42.8281 23.3906 L17.3906 23.3906 L17.3906 31.3906 Z"
        /><glyph unicode="3" horiz-adv-x="60.20508" d="M37.8906 39.0156 Q45.0625 37.1094 48.875 32.25 Q52.6875 27.3906 52.6875 20.125 Q52.6875 10.0625 45.9219 4.3203 Q39.1562 -1.4219 27.2031 -1.4219 Q22.1719 -1.4219 16.9453 -0.4922 Q11.7188 0.4375 6.6875 2.2031 L6.6875 12.0156 Q11.6719 9.4219 16.5078 8.1562 Q21.3438 6.8906 26.125 6.8906 Q34.2344 6.8906 38.5781 10.5469 Q42.9219 14.2031 42.9219 21.0938 Q42.9219 27.4375 38.5781 31.1719 Q34.2344 34.9062 26.8125 34.9062 L19.2812 34.9062 L19.2812 43.0156 L26.8125 43.0156 Q33.5938 43.0156 37.4062 45.9922 Q41.2188 48.9688 41.2188 54.2969 Q41.2188 59.9062 37.6719 62.9141 Q34.125 65.9219 27.5938 65.9219 Q23.25 65.9219 18.6094 64.9453 Q13.9688 63.9688 8.8906 62.0156 L8.8906 71.0938 Q14.7969 72.6562 19.4141 73.4375 Q24.0312 74.2188 27.5938 74.2188 Q38.2344 74.2188 44.6094 68.875 Q50.9844 63.5312 50.9844 54.6875 Q50.9844 48.6875 47.6328 44.6797 Q44.2812 40.6719 37.8906 39.0156 Z"
        /><glyph unicode="9" horiz-adv-x="60.20508" d="M29.1094 32.3281 Q35.4062 32.3281 38.9922 36.8672 Q42.5781 41.4062 42.5781 49.4219 Q42.5781 57.4219 38.9922 61.9609 Q35.4062 66.5 29.1094 66.5 Q22.5625 66.5 19.2422 62.1797 Q15.9219 57.8594 15.9219 49.4219 Q15.9219 40.9219 19.2188 36.625 Q22.5156 32.3281 29.1094 32.3281 ZM11.5312 1.5156 L11.5312 10.5938 Q14.5938 8.7969 18.0625 7.8438 Q21.5312 6.8906 25.2969 6.8906 Q34.6719 6.8906 39.4766 13.9453 Q44.2812 21 44.2812 34.7188 Q42 29.8281 37.8438 27.2188 Q33.6875 24.6094 28.3281 24.6094 Q17.7812 24.6094 11.9922 31.1016 Q6.2031 37.5938 6.2031 49.5156 Q6.2031 61.2812 12.1328 67.75 Q18.0625 74.2188 28.9062 74.2188 Q41.6094 74.2188 47.5156 65.0859 Q53.4219 55.9531 53.4219 36.375 Q53.4219 17.9688 46.3125 8.2734 Q39.2031 -1.4219 25.6875 -1.4219 Q22.125 -1.4219 18.5078 -0.6641 Q14.8906 0.0938 11.5312 1.5156 Z"
        /><glyph unicode="8" horiz-adv-x="60.20508" d="M30.0781 34.625 Q23.4844 34.625 19.8984 30.9375 Q16.3125 27.25 16.3125 20.5156 Q16.3125 13.7656 19.9453 10.0312 Q23.5781 6.2969 30.0781 6.2969 Q36.7188 6.2969 40.3047 9.9844 Q43.8906 13.6719 43.8906 20.5156 Q43.8906 27.2031 40.2578 30.9141 Q36.625 34.625 30.0781 34.625 ZM21.4844 38.7188 Q15.1875 40.3281 11.6484 44.7266 Q8.1094 49.125 8.1094 55.3281 Q8.1094 64.0156 14.0156 69.1172 Q19.9219 74.2188 30.0781 74.2188 Q40.2812 74.2188 46.1875 69.1172 Q52.0938 64.0156 52.0938 55.3281 Q52.0938 49.125 48.5547 44.7266 Q45.0156 40.3281 38.7188 38.7188 Q46.0469 37.1094 49.9297 32.2266 Q53.8125 27.3438 53.8125 19.5781 Q53.8125 9.7188 47.5156 4.1484 Q41.2188 -1.4219 30.0781 -1.4219 Q18.9531 -1.4219 12.6719 4.125 Q6.3906 9.6719 6.3906 19.4844 Q6.3906 27.2969 10.2734 32.2031 Q14.1562 37.1094 21.4844 38.7188 ZM17.9219 54.3906 Q17.9219 48.5312 21.0469 45.4609 Q24.1719 42.3906 30.0781 42.3906 Q36.0312 42.3906 39.1562 45.4609 Q42.2812 48.5312 42.2812 54.3906 Q42.2812 60.3594 39.1797 63.4844 Q36.0781 66.6094 30.0781 66.6094 Q24.1719 66.6094 21.0469 63.4531 Q17.9219 60.2969 17.9219 54.3906 Z"
        /><glyph unicode="7" horiz-adv-x="60.20508" d="M6.7812 72.9062 L52.6875 72.9062 L52.6875 68.7031 L26.6094 0 L16.3125 0 L41.7031 64.5938 L6.7812 64.5938 L6.7812 72.9062 Z"
        /><glyph unicode="1" horiz-adv-x="60.20508" d="M13.1875 8.2969 L28.5156 8.2969 L28.5156 64.0156 L12.0156 60.2969 L12.0156 69.2812 L28.4219 72.9062 L38.2812 72.9062 L38.2812 8.2969 L53.4219 8.2969 L53.4219 0 L13.1875 0 L13.1875 8.2969 Z"
        /><glyph unicode="4" horiz-adv-x="60.20508" d="M35.8906 63.9219 L12.8906 25.3906 L35.8906 25.3906 L35.8906 63.9219 ZM34.2812 72.9062 L45.7031 72.9062 L45.7031 25.3906 L55.4219 25.3906 L55.4219 17.3906 L45.7031 17.3906 L45.7031 0 L35.8906 0 L35.8906 17.3906 L4.9844 17.3906 L4.9844 26.7031 L34.2812 72.9062 Z"
        /><glyph unicode="5" horiz-adv-x="60.20508" d="M10.1094 72.9062 L47.0156 72.9062 L47.0156 64.5938 L19.0938 64.5938 L19.0938 46.6875 Q21.1875 47.4688 23.3125 47.8281 Q25.4375 48.1875 27.5938 48.1875 Q38.9219 48.1875 45.5625 41.5 Q52.2031 34.8125 52.2031 23.3906 Q52.2031 11.8594 45.2422 5.2188 Q38.2812 -1.4219 26.2188 -1.4219 Q20.4062 -1.4219 15.6016 -0.6406 Q10.7969 0.1406 6.9844 1.7031 L6.9844 11.7188 Q11.4688 9.2812 16.0156 8.0859 Q20.5625 6.8906 25.2969 6.8906 Q33.4531 6.8906 37.8672 11.1875 Q42.2812 15.4844 42.2812 23.3906 Q42.2812 31.2031 37.7188 35.5469 Q33.1562 39.8906 25 39.8906 Q21.0469 39.8906 17.2891 38.9922 Q13.5312 38.0938 10.1094 36.2812 L10.1094 72.9062 Z"
        /><glyph unicode="2" horiz-adv-x="60.20508" d="M18.2188 8.2969 L51.7031 8.2969 L51.7031 0 L7.4219 0 L7.4219 8.2969 Q16.5469 17.9219 23.3828 25.2969 Q30.2188 32.6719 32.8125 35.6875 Q37.7031 41.6562 39.4062 45.3438 Q41.1094 49.0312 41.1094 52.875 Q41.1094 58.9844 37.5234 62.4531 Q33.9375 65.9219 27.6875 65.9219 Q23.25 65.9219 18.3672 64.3125 Q13.4844 62.7031 8.0156 59.4219 L8.0156 69.3906 Q13.0312 71.7812 17.8906 73 Q22.75 74.2188 27.4844 74.2188 Q38.1875 74.2188 44.7031 68.5312 Q51.2188 62.8438 51.2188 53.6094 Q51.2188 48.9219 49.0469 44.2344 Q46.875 39.5469 42 33.8906 Q39.2656 30.7188 34.0625 25.1016 Q28.8594 19.4844 18.2188 8.2969 Z"
        /><glyph unicode="." horiz-adv-x="60.20508" d="M23.875 14.8906 L36.1875 14.8906 L36.1875 0 L23.875 0 L23.875 14.8906 Z"
        /><glyph unicode="0" horiz-adv-x="60.20508" d="M23.5781 36.625 Q23.5781 39.3125 25.4609 41.2656 Q27.3438 43.2188 29.9844 43.2188 Q32.7188 43.2188 34.6719 41.2656 Q36.625 39.3125 36.625 36.625 Q36.625 33.8906 34.6953 31.9844 Q32.7656 30.0781 29.9844 30.0781 Q27.25 30.0781 25.4141 31.9375 Q23.5781 33.7969 23.5781 36.625 ZM30.0781 66.4062 Q23.1875 66.4062 19.7969 58.9844 Q16.4062 51.5625 16.4062 36.375 Q16.4062 21.2344 19.7969 13.8125 Q23.1875 6.3906 30.0781 6.3906 Q37.0156 6.3906 40.4062 13.8125 Q43.7969 21.2344 43.7969 36.375 Q43.7969 51.5625 40.4062 58.9844 Q37.0156 66.4062 30.0781 66.4062 ZM30.0781 74.2188 Q41.75 74.2188 47.7344 64.6484 Q53.7188 55.0781 53.7188 36.375 Q53.7188 17.7188 47.7344 8.1484 Q41.75 -1.4219 30.0781 -1.4219 Q18.4062 -1.4219 12.4531 8.1484 Q6.5 17.7188 6.5 36.375 Q6.5 55.0781 12.4531 64.6484 Q18.4062 74.2188 30.0781 74.2188 Z"
        /><glyph unicode="m" horiz-adv-x="60.20508" d="M33.0156 49.125 Q34.6719 52.6406 37.2344 54.3203 Q39.7969 56 43.4062 56 Q50 56 52.7109 50.8984 Q55.4219 45.7969 55.4219 31.6875 L55.4219 0 L47.2188 0 L47.2188 31.2969 Q47.2188 42.875 45.9219 45.6797 Q44.625 48.4844 41.2188 48.4844 Q37.3125 48.4844 35.8672 45.4844 Q34.4219 42.4844 34.4219 31.2969 L34.4219 0 L26.2188 0 L26.2188 31.2969 Q26.2188 43.0156 24.8281 45.75 Q23.4375 48.4844 19.8281 48.4844 Q16.2656 48.4844 14.875 45.4844 Q13.4844 42.4844 13.4844 31.2969 L13.4844 0 L5.3281 0 L5.3281 54.6875 L13.4844 54.6875 L13.4844 50 Q15.0938 52.9375 17.5078 54.4688 Q19.9219 56 23 56 Q26.7031 56 29.1719 54.2969 Q31.6406 52.5938 33.0156 49.125 Z"
        /><glyph unicode="i" horiz-adv-x="60.20508" d="M12.5 54.6875 L35.5 54.6875 L35.5 6.9844 L53.3281 6.9844 L53.3281 0 L8.6875 0 L8.6875 6.9844 L26.5156 6.9844 L26.5156 47.7031 L12.5 47.7031 L12.5 54.6875 ZM26.5156 75.9844 L35.5 75.9844 L35.5 64.5938 L26.5156 64.5938 L26.5156 75.9844 Z"
        /><glyph unicode="T" horiz-adv-x="60.20508" d="M2.2969 72.9062 L57.9062 72.9062 L57.9062 64.5938 L35.1094 64.5938 L35.1094 0 L25.2031 0 L25.2031 64.5938 L2.2969 64.5938 L2.2969 72.9062 Z"
        /><glyph unicode="6" horiz-adv-x="60.20508" d="M48.3906 71.2969 L48.3906 62.2031 Q45.3125 64.0156 41.8438 64.9688 Q38.375 65.9219 34.625 65.9219 Q25.25 65.9219 20.4141 58.8672 Q15.5781 51.8125 15.5781 38.0938 Q17.9219 42.9688 22.0703 45.5781 Q26.2188 48.1875 31.5938 48.1875 Q42.1406 48.1875 47.9297 41.7188 Q53.7188 35.25 53.7188 23.3906 Q53.7188 11.5781 47.7578 5.0781 Q41.7969 -1.4219 31 -1.4219 Q18.3125 -1.4219 12.4062 7.6875 Q6.5 16.7969 6.5 36.375 Q6.5 54.8281 13.6016 64.5234 Q20.7031 74.2188 34.1875 74.2188 Q37.7969 74.2188 41.4062 73.4609 Q45.0156 72.7031 48.3906 71.2969 ZM30.8125 40.4844 Q24.5156 40.4844 20.8984 35.9375 Q17.2812 31.3906 17.2812 23.3906 Q17.2812 15.375 20.8984 10.8359 Q24.5156 6.2969 30.8125 6.2969 Q37.3594 6.2969 40.6797 10.6172 Q44 14.9375 44 23.3906 Q44 31.8906 40.6797 36.1875 Q37.3594 40.4844 30.8125 40.4844 Z"
        /><glyph unicode=")" horiz-adv-x="60.20508" d="M17 75.875 L24.8125 75.875 Q32.1719 64.3594 35.7891 53.3203 Q39.4062 42.2812 39.4062 31.3906 Q39.4062 20.4062 35.7891 9.375 Q32.1719 -1.6562 24.8125 -13.1875 L17 -13.1875 Q23.4844 -1.8594 26.6875 9.2266 Q29.8906 20.3125 29.8906 31.3906 Q29.8906 42.5312 26.6875 53.6172 Q23.4844 64.7031 17 75.875 Z"
        /><glyph unicode="g" horiz-adv-x="60.20508" d="M41.8906 27.7812 Q41.8906 37.8906 38.5938 43.1406 Q35.2969 48.3906 29 48.3906 Q22.4062 48.3906 18.9453 43.1406 Q15.4844 37.8906 15.4844 27.7812 Q15.4844 17.6719 18.9766 12.375 Q22.4688 7.0781 29.1094 7.0781 Q35.2969 7.0781 38.5938 12.3984 Q41.8906 17.7188 41.8906 27.7812 ZM50.875 3.5156 Q50.875 -8.7969 45.0703 -15.1406 Q39.2656 -21.4844 27.9844 -21.4844 Q24.2656 -21.4844 20.2109 -20.8047 Q16.1562 -20.125 12.1094 -18.7969 L12.1094 -9.9062 Q16.8906 -12.1562 20.7969 -13.2344 Q24.7031 -14.3125 27.9844 -14.3125 Q35.25 -14.3125 38.5703 -10.3516 Q41.8906 -6.3906 41.8906 2.2031 L41.8906 2.5938 L41.8906 8.6875 Q39.75 4.1094 36.0391 1.8594 Q32.3281 -0.3906 27 -0.3906 Q17.4375 -0.3906 11.7188 7.2734 Q6 14.9375 6 27.7812 Q6 40.6719 11.7188 48.3359 Q17.4375 56 27 56 Q32.2812 56 35.9375 53.9062 Q39.5938 51.8125 41.8906 47.4062 L41.8906 54.5 L50.875 54.5 L50.875 3.5156 Z"
        /><glyph unicode="n" horiz-adv-x="60.20508" d="M51.3125 33.8906 L51.3125 0 L42.2812 0 L42.2812 33.8906 Q42.2812 41.2656 39.6953 44.7266 Q37.1094 48.1875 31.5938 48.1875 Q25.2969 48.1875 21.8984 43.7266 Q18.5 39.2656 18.5 30.9062 L18.5 0 L9.5156 0 L9.5156 54.6875 L18.5 54.6875 L18.5 46.4844 Q20.9062 51.1719 25.0078 53.5859 Q29.1094 56 34.7188 56 Q43.0625 56 47.1875 50.5078 Q51.3125 45.0156 51.3125 33.8906 Z"
        /><glyph unicode="h" horiz-adv-x="60.20508" d="M51.3125 33.8906 L51.3125 0 L42.2812 0 L42.2812 33.8906 Q42.2812 41.2656 39.6953 44.7266 Q37.1094 48.1875 31.5938 48.1875 Q25.2969 48.1875 21.8984 43.7266 Q18.5 39.2656 18.5 30.9062 L18.5 0 L9.5156 0 L9.5156 75.9844 L18.5 75.9844 L18.5 46.4844 Q20.9062 51.1719 25.0078 53.5859 Q29.1094 56 34.7188 56 Q43.0625 56 47.1875 50.5078 Q51.3125 45.0156 51.3125 33.8906 Z"
        /><glyph unicode="a" horiz-adv-x="60.20508" d="M34.2812 27.4844 L31.2969 27.4844 Q23.4375 27.4844 19.4609 24.7266 Q15.4844 21.9688 15.4844 16.5 Q15.4844 11.5781 18.4609 8.8438 Q21.4375 6.1094 26.7031 6.1094 Q34.125 6.1094 38.375 11.2578 Q42.625 16.4062 42.6719 25.4844 L42.6719 27.4844 L34.2812 27.4844 ZM51.7031 31.2031 L51.7031 0 L42.6719 0 L42.6719 8.1094 Q39.7969 3.2188 35.4297 0.8984 Q31.0625 -1.4219 24.8125 -1.4219 Q16.4531 -1.4219 11.4766 3.2969 Q6.5 8.0156 6.5 15.9219 Q6.5 25.0469 12.625 29.7812 Q18.75 34.5156 30.6094 34.5156 L42.6719 34.5156 L42.6719 35.9375 Q42.625 42.4844 39.3516 45.4375 Q36.0781 48.3906 28.9062 48.3906 Q24.3125 48.3906 19.625 47.0703 Q14.9375 45.75 10.5 43.2188 L10.5 52.2031 Q15.4844 54.1094 20.0469 55.0547 Q24.6094 56 28.9062 56 Q35.6875 56 40.5 54 Q45.3125 52 48.2969 48 Q50.1406 45.5625 50.9219 41.9688 Q51.7031 38.375 51.7031 31.2031 Z"
        /><glyph unicode="(" horiz-adv-x="60.20508" d="M43.2188 75.875 Q36.7188 64.75 33.5234 53.6875 Q30.3281 42.625 30.3281 31.3906 Q30.3281 20.2188 33.5234 9.1328 Q36.7188 -1.9531 43.2188 -13.1875 L35.4062 -13.1875 Q28.0312 -1.5625 24.4141 9.4453 Q20.7969 20.4531 20.7969 31.3906 Q20.7969 42.2812 24.4141 53.3203 Q28.0312 64.3594 35.4062 75.875 L43.2188 75.875 Z"
        /><glyph unicode="s" horiz-adv-x="60.20508" d="M47.5156 52.7812 L47.5156 44 Q43.6562 46.2344 39.75 47.3594 Q35.8438 48.4844 31.7812 48.4844 Q25.6875 48.4844 22.6797 46.5078 Q19.6719 44.5312 19.6719 40.4844 Q19.6719 36.8125 21.9219 35.0078 Q24.1719 33.2031 33.1094 31.5 L36.7188 30.8125 Q43.4062 29.5469 46.8516 25.7344 Q50.2969 21.9219 50.2969 15.8281 Q50.2969 7.7188 44.5312 3.1484 Q38.7656 -1.4219 28.5156 -1.4219 Q24.4688 -1.4219 20.0234 -0.5625 Q15.5781 0.2969 10.4062 2 L10.4062 11.2812 Q15.4375 8.6875 20.0234 7.3984 Q24.6094 6.1094 28.7188 6.1094 Q34.6719 6.1094 37.9453 8.5234 Q41.2188 10.9375 41.2188 15.2812 Q41.2188 21.5312 29.25 23.9219 L28.8594 24.0312 L25.4844 24.7031 Q17.7188 26.2188 14.1562 29.8125 Q10.5938 33.4062 10.5938 39.5938 Q10.5938 47.4688 15.9141 51.7344 Q21.2344 56 31.1094 56 Q35.5 56 39.5547 55.1953 Q43.6094 54.3906 47.5156 52.7812 Z"
        /><glyph unicode="t" horiz-adv-x="60.20508" d="M29.9844 70.2188 L29.9844 54.6875 L50.3906 54.6875 L50.3906 47.7031 L29.9844 47.7031 L29.9844 18.0156 Q29.9844 11.9688 32.2812 9.5703 Q34.5781 7.1719 40.2812 7.1719 L50.3906 7.1719 L50.3906 0 L39.4062 0 Q29.2969 0 25.1484 4.0547 Q21 8.1094 21 18.0156 L21 47.7031 L6.3906 47.7031 L6.3906 54.6875 L21 54.6875 L21 70.2188 L29.9844 70.2188 Z"
        /><glyph unicode="j" horiz-adv-x="60.20508" d="M29.2969 -0.9844 L29.2969 47.7031 L13.8125 47.7031 L13.8125 54.6875 L38.2812 54.6875 L38.2812 -0.9844 Q38.2812 -10.5 33.9141 -15.6484 Q29.5469 -20.7969 21.4844 -20.7969 L9.0781 -20.7969 L9.0781 -13.1875 L20.5156 -13.1875 Q24.9062 -13.1875 27.1016 -10.1328 Q29.2969 -7.0781 29.2969 -0.9844 ZM29.2969 75.9844 L38.2812 75.9844 L38.2812 64.5938 L29.2969 64.5938 L29.2969 75.9844 Z"
        /><glyph unicode="E" horiz-adv-x="60.20508" d="M9.625 72.9062 L52.875 72.9062 L52.875 64.5938 L19.4844 64.5938 L19.4844 43.0156 L51.4219 43.0156 L51.4219 34.7188 L19.4844 34.7188 L19.4844 8.2969 L53.8125 8.2969 L53.8125 0 L9.625 0 L9.625 72.9062 Z"
        /><glyph unicode="l" horiz-adv-x="60.20508" d="M31.2031 19.8281 Q31.2031 13.7656 33.4219 10.6953 Q35.6406 7.625 39.9844 7.625 L50.4844 7.625 L50.4844 0 L39.1094 0 Q31.0625 0 26.6406 5.1797 Q22.2188 10.3594 22.2188 19.8281 L22.2188 69.4844 L7.8125 69.4844 L7.8125 76.5156 L31.2031 76.5156 L31.2031 19.8281 Z"
      /></font
      ><font horiz-adv-x="60.009766" id="font2"
      ><font-face ascent="92.822266" descent="23.583984" units-per-em="100" style="font-style:normal; font-family:SansSerif; font-weight:bold;"
        /><missing-glyph horiz-adv-x="60.009766" d="M4.9844 -17.6719 L4.9844 70.5156 L54.9844 70.5156 L54.9844 -17.6719 L4.9844 -17.6719 ZM10.5938 -12.1094 L49.4219 -12.1094 L49.4219 64.8906 L10.5938 64.8906 L10.5938 -12.1094 Z"
        /><glyph unicode="e" horiz-adv-x="67.822266" d="M62.9844 27.4844 L62.9844 22.5156 L22.125 22.5156 Q22.75 16.3594 26.5625 13.2812 Q30.375 10.2031 37.2031 10.2031 Q42.7188 10.2031 48.5078 11.8438 Q54.2969 13.4844 60.4062 16.7969 L60.4062 3.3281 Q54.2031 0.9844 48 -0.2188 Q41.7969 -1.4219 35.5938 -1.4219 Q20.75 -1.4219 12.5234 6.125 Q4.2969 13.6719 4.2969 27.2969 Q4.2969 40.6719 12.375 48.3359 Q20.4531 56 34.625 56 Q47.5156 56 55.25 48.2422 Q62.9844 40.4844 62.9844 27.4844 ZM45.0156 33.2969 Q45.0156 38.2812 42.1094 41.3359 Q39.2031 44.3906 34.5156 44.3906 Q29.4375 44.3906 26.2656 41.5312 Q23.0938 38.6719 22.3125 33.2969 L45.0156 33.2969 Z"
        /><glyph unicode="l" horiz-adv-x="34.277344" d="M8.4062 75.9844 L25.875 75.9844 L25.875 0 L8.4062 0 L8.4062 75.9844 Z"
        /><glyph unicode="b" horiz-adv-x="71.58203" d="M37.5 11.2812 Q43.1094 11.2812 46.0703 15.3828 Q49.0312 19.4844 49.0312 27.2969 Q49.0312 35.1094 46.0703 39.2109 Q43.1094 43.3125 37.5 43.3125 Q31.8906 43.3125 28.8828 39.1875 Q25.875 35.0625 25.875 27.2969 Q25.875 19.5312 28.8828 15.4062 Q31.8906 11.2812 37.5 11.2812 ZM25.875 46.6875 Q29.5 51.4688 33.8906 53.7344 Q38.2812 56 44 56 Q54.1094 56 60.6016 47.9688 Q67.0938 39.9375 67.0938 27.2969 Q67.0938 14.6562 60.6016 6.6172 Q54.1094 -1.4219 44 -1.4219 Q38.2812 -1.4219 33.8906 0.8516 Q29.5 3.125 25.875 7.9062 L25.875 0 L8.4062 0 L8.4062 75.9844 L25.875 75.9844 L25.875 46.6875 Z"
        /><glyph unicode="a" horiz-adv-x="67.48047" d="M32.9062 24.6094 Q27.4375 24.6094 24.6797 22.7578 Q21.9219 20.9062 21.9219 17.2812 Q21.9219 13.9688 24.1484 12.0859 Q26.375 10.2031 30.3281 10.2031 Q35.25 10.2031 38.625 13.7422 Q42 17.2812 42 22.6094 L42 24.6094 L32.9062 24.6094 ZM59.625 31.2031 L59.625 0 L42 0 L42 8.1094 Q38.4844 3.125 34.0859 0.8516 Q29.6875 -1.4219 23.3906 -1.4219 Q14.8906 -1.4219 9.5938 3.5391 Q4.2969 8.5 4.2969 16.4062 Q4.2969 26.0312 10.9141 30.5234 Q17.5312 35.0156 31.6875 35.0156 L42 35.0156 L42 36.375 Q42 40.5312 38.7266 42.4609 Q35.4531 44.3906 28.5156 44.3906 Q22.9062 44.3906 18.0703 43.2656 Q13.2344 42.1406 9.0781 39.8906 L9.0781 53.2188 Q14.7031 54.5938 20.3672 55.2969 Q26.0312 56 31.6875 56 Q46.4844 56 53.0547 50.1719 Q59.625 44.3438 59.625 31.2031 Z"
        /><glyph unicode="T" horiz-adv-x="68.21289" d="M0.4844 72.9062 L67.6719 72.9062 L67.6719 58.6875 L43.5 58.6875 L43.5 0 L24.7031 0 L24.7031 58.6875 L0.4844 58.6875 L0.4844 72.9062 Z"
        /><glyph unicode=" " horiz-adv-x="34.814453" d=""
        /><glyph unicode="V" horiz-adv-x="77.39258" d="M0.4844 72.9062 L19.3906 72.9062 L38.7188 19.0938 L58.0156 72.9062 L76.9062 72.9062 L49.9062 0 L27.4844 0 L0.4844 72.9062 Z"
        /><glyph unicode="O" horiz-adv-x="85.009766" d="M42.4844 60.5938 Q33.8906 60.5938 29.1562 54.25 Q24.4219 47.9062 24.4219 36.375 Q24.4219 24.9062 29.1562 18.5547 Q33.8906 12.2031 42.4844 12.2031 Q51.125 12.2031 55.8594 18.5547 Q60.5938 24.9062 60.5938 36.375 Q60.5938 47.9062 55.8594 54.25 Q51.125 60.5938 42.4844 60.5938 ZM42.4844 74.2188 Q60.0625 74.2188 70.0234 64.1641 Q79.9844 54.1094 79.9844 36.375 Q79.9844 18.7031 70.0234 8.6406 Q60.0625 -1.4219 42.4844 -1.4219 Q24.9531 -1.4219 14.9688 8.6406 Q4.9844 18.7031 4.9844 36.375 Q4.9844 54.1094 14.9688 64.1641 Q24.9531 74.2188 42.4844 74.2188 Z"
        /><glyph unicode="N" horiz-adv-x="83.69141" d="M9.1875 72.9062 L30.1719 72.9062 L56.6875 22.9062 L56.6875 72.9062 L74.5156 72.9062 L74.5156 0 L53.5156 0 L27 50 L27 0 L9.1875 0 L9.1875 72.9062 Z"
        /><glyph unicode="A" horiz-adv-x="77.39258" d="M53.4219 13.2812 L24.0312 13.2812 L19.3906 0 L0.4844 0 L27.4844 72.9062 L49.9062 72.9062 L76.9062 0 L58.0156 0 L53.4219 13.2812 ZM28.7188 26.8125 L48.6875 26.8125 L38.7188 55.8125 L28.7188 26.8125 Z"
      /></font
    ></defs
    ><g style="fill:white; stroke:white;"
    ><rect x="0" y="0" width="560" style="clip-path:url(#clipPath1); stroke:none;" height="420"
    /></g
    ><g style="fill:rgb(235,233,237); font-family:sans-serif; stroke:rgb(235,233,237);" transform="translate(-1,24)"
    ><rect x="0" y="0" width="560" style="clip-path:url(#clipPath2); stroke:none;" height="397"
    /></g
    ><g style="fill:gray; font-family:sans-serif; stroke:gray; stroke-linejoin:bevel;" transform="translate(-0.5,24.5)"
    ><rect x="0" y="0" width="558" style="fill:none; clip-path:url(#clipPath3);" height="395"
    /></g
    ><g style="fill:white; font-family:sans-serif; stroke:white; stroke-linejoin:bevel;" transform="matrix(1,0,0,1,-1,24) translate(0.5,0.5)"
    ><line x1="559" x2="559" y1="0" style="fill:none; clip-path:url(#clipPath3);" y2="396"
    /></g
    ><g style="fill:white; font-family:sans-serif; stroke:white; stroke-linejoin:bevel;" transform="matrix(1,0,0,1,-1,24) translate(0.5,0.5)"
    ><line x1="0" x2="559" y1="396" style="fill:none; clip-path:url(#clipPath3);" y2="396"
    /></g
    ><g style="fill:rgb(235,233,237); font-family:sans-serif; stroke:rgb(235,233,237);" transform="matrix(1,0,0,1,-1,24) translate(543,1)"
    ><rect x="0" y="0" width="15" style="clip-path:url(#clipPath4); stroke:none;" height="394"
      /><line transform="translate(0.5,15.5)" x1="0" x2="0" y1="0" style="clip-path:url(#clipPath5); fill:none; stroke-linejoin:bevel; stroke:gray;" y2="363"
    /></g
    ><g style="fill:gray; font-family:sans-serif; stroke:gray; stroke-linejoin:bevel;" transform="matrix(1,0,0,1,542,40) translate(0.5,0.5)"
    ><line x1="15" x2="15" y1="0" style="fill:none; clip-path:url(#clipPath5);" y2="363"
    /></g
    ><g style="fill:gray; font-family:sans-serif; stroke:gray; stroke-linejoin:bevel;" transform="matrix(1,0,0,1,542,40) translate(0.5,0.5)"
    ><line x1="1" x2="16" y1="363" style="fill:none; clip-path:url(#clipPath5);" y2="363"
    /></g
    ><g style="fill:gray; font-family:sans-serif; stroke:gray; stroke-linejoin:bevel;" transform="matrix(1,0,0,1,542,40) translate(0.5,0.5)"
    ><line x1="1" x2="15" y1="0" style="fill:none; clip-path:url(#clipPath5);" y2="0"
    /></g
    ><g style="fill:rgb(167,166,170); font-family:sans-serif; stroke:rgb(167,166,170); stroke-linejoin:bevel;" transform="matrix(1,0,0,1,542,40) translate(0.5,0.5)"
    ><line x1="1" x2="1" y1="1" style="fill:none; clip-path:url(#clipPath5);" y2="362"
    /></g
    ><g style="fill:rgb(167,166,170); font-family:sans-serif; stroke:rgb(167,166,170); stroke-linejoin:bevel;" transform="matrix(1,0,0,1,542,40) translate(0.5,0.5)"
    ><line x1="1" x2="14" y1="1" style="fill:none; clip-path:url(#clipPath5);" y2="1"
    /></g
    ><g style="fill:rgb(167,166,170); font-family:sans-serif; stroke:rgb(167,166,170); stroke-linejoin:bevel;" transform="matrix(1,0,0,1,542,40) translate(0.5,0.5)"
    ><line x1="1" x2="16" y1="-15" style="fill:none; clip-path:url(#clipPath5);" y2="-15"
    /></g
    ><g style="fill:white; font-family:sans-serif; stroke:white; stroke-linejoin:bevel;" transform="matrix(1,0,0,1,542,40) translate(0.5,0.5)"
    ><line x1="16" x2="16" y1="0" style="fill:none; clip-path:url(#clipPath5);" y2="363"
    /></g
    ><g style="fill:rgb(235,233,237); font-family:sans-serif; stroke:rgb(235,233,237);" transform="matrix(1,0,0,1,-1,24) translate(543,1)"
    ><rect x="0" y="0" width="15" style="clip-path:url(#clipPath6); stroke:none;" height="15"
      /><rect x="7" y="6" transform="translate(0,-1)" width="2" style="clip-path:url(#clipPath7); fill:black; stroke:none;" height="1"
      /><rect x="6" y="7" transform="translate(0,-1)" width="4" style="clip-path:url(#clipPath7); fill:black; stroke:none;" height="1"
      /><rect x="5" y="8" transform="translate(0,-1)" width="6" style="clip-path:url(#clipPath7); fill:black; stroke:none;" height="1"
      /><rect x="4" y="9" transform="translate(0,-1)" width="8" style="clip-path:url(#clipPath7); fill:black; stroke:none;" height="1"
      /><line transform="translate(0.5,-0.5)" x1="1" x2="14" y1="1" style="clip-path:url(#clipPath8); fill:none; stroke-linejoin:bevel; stroke:white;" y2="1"
    /></g
    ><g style="fill:white; font-family:sans-serif; stroke:white; stroke-linejoin:bevel;" transform="matrix(1,0,0,1,542,24) translate(0.5,0.5)"
    ><line x1="1" x2="1" y1="1" style="fill:none; clip-path:url(#clipPath8);" y2="15"
    /></g
    ><g style="fill:white; font-family:sans-serif; stroke:white; stroke-linejoin:bevel;" transform="matrix(1,0,0,1,542,24) translate(0.5,0.5)"
    ><line x1="16" x2="16" y1="1" style="fill:none; clip-path:url(#clipPath8);" y2="15"
    /></g
    ><g style="fill:gray; font-family:sans-serif; stroke:gray; stroke-linejoin:bevel;" transform="matrix(1,0,0,1,542,24) translate(0.5,0.5)"
    ><line x1="0" x2="15" y1="0" style="fill:none; clip-path:url(#clipPath8);" y2="0"
    /></g
    ><g style="fill:gray; font-family:sans-serif; stroke:gray; stroke-linejoin:bevel;" transform="matrix(1,0,0,1,542,24) translate(0.5,0.5)"
    ><line x1="0" x2="0" y1="0" style="fill:none; clip-path:url(#clipPath8);" y2="15"
    /></g
    ><g style="fill:gray; font-family:sans-serif; stroke:gray; stroke-linejoin:bevel;" transform="matrix(1,0,0,1,542,24) translate(0.5,0.5)"
    ><line x1="15" x2="15" y1="1" style="fill:none; clip-path:url(#clipPath8);" y2="15"
    /></g
    ><g transform="matrix(1,0,0,1,542,24) translate(0,1) matrix(0.5,0,0,0.5,1,1)" style="fill:rgb(0,0,0); fill-opacity:0; font-family:sans-serif; stroke-opacity:0; stroke:rgb(0,0,0);"
    ><image x="0" y="0" width="14" xlink:href="data:image/png;base64,iVBORw0KGgoAAAANSUhEUgAAAA4AAAAeCAYAAAAcni9KAAAAOklEQVR42u3LEQIA
IBBFwYUkSJIgWUiCJOn+J9tel4g+DI5FxMHGwsSAo6OhoiAjwR5TVFRUVFT8FS8A
HhC+8OL+AwAAAABJRU5ErkJggg==" style="clip-path:url(#clipPath9);" height="30" preserveAspectRatio="none"
      /><image x="0" y="0" transform="matrix(1,0,0,1,14,0)" width="14" xlink:href="data:image/png;base64,iVBORw0KGgoAAAANSUhEUgAAAA4AAAAeCAYAAAAcni9KAAAAN0lEQVR42u3LQQoA
EABE0VlIkiRJktz/mP4prGbxlk+SAiISMgoqGjoGJhY2Dq4cHR0dHR1/xQczcBvl
XUOTJQAAAABJRU5ErkJggg==" style="clip-path:url(#clipPath9);" height="30" preserveAspectRatio="none"
    /></g
    ><g style="fill:rgb(235,233,237); font-family:sans-serif; stroke:rgb(235,233,237);" transform="matrix(1,0,0,1,-1,24) translate(543,380)"
    ><rect x="0" y="0" width="15" style="clip-path:url(#clipPath6); stroke:none;" height="15"
      /><rect x="7" y="8" width="2" style="clip-path:url(#clipPath6); fill:black; stroke:none;" height="1"
      /><rect x="6" y="7" width="4" style="clip-path:url(#clipPath6); fill:black; stroke:none;" height="1"
      /><rect x="5" y="6" width="6" style="clip-path:url(#clipPath6); fill:black; stroke:none;" height="1"
      /><rect x="4" y="5" width="8" style="clip-path:url(#clipPath6); fill:black; stroke:none;" height="1"
      /><line transform="translate(0.5,0.5)" x1="1" x2="14" y1="0" style="clip-path:url(#clipPath10); fill:none; stroke-linejoin:bevel; stroke:white;" y2="0"
    /></g
    ><g style="fill:white; font-family:sans-serif; stroke:white; stroke-linejoin:bevel;" transform="matrix(1,0,0,1,542,404) translate(0.5,0.5)"
    ><line x1="1" x2="1" y1="0" style="fill:none; clip-path:url(#clipPath10);" y2="13"
    /></g
    ><g style="fill:white; font-family:sans-serif; stroke:white; stroke-linejoin:bevel;" transform="matrix(1,0,0,1,542,404) translate(0.5,0.5)"
    ><line x1="0" x2="16" y1="15" style="fill:none; clip-path:url(#clipPath10);" y2="15"
    /></g
    ><g style="fill:white; font-family:sans-serif; stroke:white; stroke-linejoin:bevel;" transform="matrix(1,0,0,1,542,404) translate(0.5,0.5)"
    ><line x1="16" x2="16" y1="0" style="fill:none; clip-path:url(#clipPath10);" y2="15"
    /></g
    ><g style="fill:gray; font-family:sans-serif; stroke:gray; stroke-linejoin:bevel;" transform="matrix(1,0,0,1,542,404) translate(0.5,0.5)"
    ><line x1="0" x2="0" y1="0" style="fill:none; clip-path:url(#clipPath10);" y2="14"
    /></g
    ><g style="fill:gray; font-family:sans-serif; stroke:gray; stroke-linejoin:bevel;" transform="matrix(1,0,0,1,542,404) translate(0.5,0.5)"
    ><line x1="15" x2="15" y1="0" style="fill:none; clip-path:url(#clipPath10);" y2="14"
    /></g
    ><g style="fill:gray; font-family:sans-serif; stroke:gray; stroke-linejoin:bevel;" transform="matrix(1,0,0,1,542,404) translate(0.5,0.5)"
    ><line x1="1" x2="15" y1="14" style="fill:none; clip-path:url(#clipPath10);" y2="14"
    /></g
    ><g transform="matrix(0.5,0,0,0.5,543,405)" style="fill:rgb(0,0,0); fill-opacity:0; font-family:sans-serif; stroke-opacity:0; stroke:rgb(0,0,0);"
    ><image x="0" y="0" width="14" xlink:href="data:image/png;base64,iVBORw0KGgoAAAANSUhEUgAAAA4AAAAaCAYAAACHD21cAAAAOUlEQVR42u3LEQIA
IBBFwYUkSJIgWUiCJOn+J9tetwg+DI5FxMHGwsSAo6OhoiAjwR5TVFRUVPwjXonz
Y9M59N4UAAAAAElFTkSuQmCC" style="clip-path:url(#clipPath11);" height="26" preserveAspectRatio="none"
      /><image x="0" y="0" transform="matrix(1,0,0,1,14,0)" width="14" xlink:href="data:image/png;base64,iVBORw0KGgoAAAANSUhEUgAAAA4AAAAaCAYAAACHD21cAAAANklEQVR42u3LQQoA
EABE0VlIkiRJktz/mP4xLGbxlk+SAiISMgoqGjoGJhY2Dq4cHR0dHf+IDyQXGC2r
V1YlAAAAAElFTkSuQmCC" style="clip-path:url(#clipPath11);" height="26" preserveAspectRatio="none"
    /></g
    ><g style="fill:white; font-size:13px; font-family:monospace; stroke:white;" transform="matrix(1,0,0,1,-1,24) translate(1,1)"
    ><rect x="0" y="0" width="542" style="clip-path:url(#clipPath12); stroke:none;" height="394"
    /></g
    ><g style="font-family:monospace; font-size:13px;" transform="matrix(1,0,0,1,-1,24) translate(1,1)"
    ><text x="1" xml:space="preserve" y="13" style="clip-path:url(#clipPath13); stroke:none;"
      >Source                  SS      df     MS        F     Prob&gt;F</text
    ></g
    ><g style="font-family:monospace; font-size:13px;" transform="matrix(1,0,0,1,-1,24) translate(1,17)"
    ><text x="1" xml:space="preserve" y="13" style="clip-path:url(#clipPath13); stroke:none;"
      >-------------------------------------------------------------</text
    ></g
    ><g style="font-family:monospace; font-size:13px;" transform="matrix(1,0,0,1,-1,24) translate(1,33)"
    ><text x="1" xml:space="preserve" y="13" style="clip-path:url(#clipPath13); stroke:none;"
      >Time                  0.02554    2   0.01277    8.93   0.0005</text
    ></g
    ><g style="font-family:monospace; font-size:13px;" transform="matrix(1,0,0,1,-1,24) translate(1,49)"
    ><text x="1" xml:space="preserve" y="13" style="clip-path:url(#clipPath13); stroke:none;"
      >Subjects (matching)   1.66714   23   0.07248   50.71   0     </text
    ></g
    ><g style="font-family:monospace; font-size:13px;" transform="matrix(1,0,0,1,-1,24) translate(1,65)"
    ><text x="1" xml:space="preserve" y="13" style="clip-path:url(#clipPath13); stroke:none;"
      >Error                 0.06575   46   0.00143                 </text
    ></g
    ><g style="font-family:monospace; font-size:13px;" transform="matrix(1,0,0,1,-1,24) translate(1,81)"
    ><text x="1" xml:space="preserve" y="13" style="clip-path:url(#clipPath13); stroke:none;"
      >Total                 1.75843   71                           </text
    ></g
    ><g transform="translate(-1,1)" style="fill:rgb(240,240,240); font-size:16px; font-weight:bold; font-family:'SansSerif'; stroke:rgb(240,240,240);"
    ><rect x="0" y="0" width="560" style="clip-path:url(#clipPath19); stroke:none;" height="23"
    /></g
    ><g style="font-size:16px; font-weight:bold; font-family:'SansSerif';" transform="translate(-1,1)"
    ><text x="222" xml:space="preserve" y="14" style="clip-path:url(#clipPath19); stroke:none;"
      >ANOVA Table</text
    ></g
  ></g
></svg
>
